%!PS-Adobe-3.0 EPSF-3.0
%%Creator: (MATLAB, The Mathworks, Inc. Version 9.4.0.813654 \(R2018a\). Operating System: Windows 10)
%%Title: (C:/Users/c3162257/Dropbox/PhD Thesis/Papers/JMLS EM/MATLAB/example2bhpc/hpc_fig.eps)
%%CreationDate: 2021-05-23T22:13:32
%%Pages: (atend)
%%BoundingBox: 0 0 420 315
%%LanguageLevel: 3
%%EndComments
%%BeginProlog
%%BeginResource: procset (Apache XML Graphics Std ProcSet) 1.2 0
%%Version: 1.2 0
%%Copyright: (Copyright 2001-2003,2010 The Apache Software Foundation. License terms: http://www.apache.org/licenses/LICENSE-2.0)
/bd{bind def}bind def
/ld{load def}bd
/GR/grestore ld
/GS/gsave ld
/RM/rmoveto ld
/C/curveto ld
/t/show ld
/L/lineto ld
/ML/setmiterlimit ld
/CT/concat ld
/f/fill ld
/N/newpath ld
/S/stroke ld
/CC/setcmykcolor ld
/A/ashow ld
/cp/closepath ld
/RC/setrgbcolor ld
/LJ/setlinejoin ld
/GC/setgray ld
/LW/setlinewidth ld
/M/moveto ld
/re {4 2 roll M
1 index 0 rlineto
0 exch rlineto
neg 0 rlineto
cp } bd
/_ctm matrix def
/_tm matrix def
/BT { _ctm currentmatrix pop matrix _tm copy pop 0 0 moveto } bd
/ET { _ctm setmatrix } bd
/iTm { _ctm setmatrix _tm concat } bd
/Tm { _tm astore pop iTm 0 0 moveto } bd
/ux 0.0 def
/uy 0.0 def
/F {
  /Tp exch def
  /Tf exch def
  Tf findfont Tp scalefont setfont
  /cf Tf def  /cs Tp def
} bd
/ULS {currentpoint /uy exch def /ux exch def} bd
/ULE {
  /Tcx currentpoint pop def
  gsave
  newpath
  cf findfont cs scalefont dup
  /FontMatrix get 0 get /Ts exch def /FontInfo get dup
  /UnderlinePosition get Ts mul /To exch def
  /UnderlineThickness get Ts mul /Tt exch def
  ux uy To add moveto  Tcx uy To add lineto
  Tt setlinewidth stroke
  grestore
} bd
/OLE {
  /Tcx currentpoint pop def
  gsave
  newpath
  cf findfont cs scalefont dup
  /FontMatrix get 0 get /Ts exch def /FontInfo get dup
  /UnderlinePosition get Ts mul /To exch def
  /UnderlineThickness get Ts mul /Tt exch def
  ux uy To add cs add moveto Tcx uy To add cs add lineto
  Tt setlinewidth stroke
  grestore
} bd
/SOE {
  /Tcx currentpoint pop def
  gsave
  newpath
  cf findfont cs scalefont dup
  /FontMatrix get 0 get /Ts exch def /FontInfo get dup
  /UnderlinePosition get Ts mul /To exch def
  /UnderlineThickness get Ts mul /Tt exch def
  ux uy To add cs 10 mul 26 idiv add moveto Tcx uy To add cs 10 mul 26 idiv add lineto
  Tt setlinewidth stroke
  grestore
} bd
/QT {
/Y22 exch store
/X22 exch store
/Y21 exch store
/X21 exch store
currentpoint
/Y21 load 2 mul add 3 div exch
/X21 load 2 mul add 3 div exch
/X21 load 2 mul /X22 load add 3 div
/Y21 load 2 mul /Y22 load add 3 div
/X22 load /Y22 load curveto
} bd
/SSPD {
dup length /d exch dict def
{
/v exch def
/k exch def
currentpagedevice k known {
/cpdv currentpagedevice k get def
v cpdv ne {
/upd false def
/nullv v type /nulltype eq def
/nullcpdv cpdv type /nulltype eq def
nullv nullcpdv or
{
/upd true def
} {
/sametype v type cpdv type eq def
sametype {
v type /arraytype eq {
/vlen v length def
/cpdvlen cpdv length def
vlen cpdvlen eq {
0 1 vlen 1 sub {
/i exch def
/obj v i get def
/cpdobj cpdv i get def
obj cpdobj ne {
/upd true def
exit
} if
} for
} {
/upd true def
} ifelse
} {
v type /dicttype eq {
v {
/dv exch def
/dk exch def
/cpddv cpdv dk get def
dv cpddv ne {
/upd true def
exit
} if
} forall
} {
/upd true def
} ifelse
} ifelse
} if
} ifelse
upd true eq {
d k v put
} if
} if
} if
} forall
d length 0 gt {
d setpagedevice
} if
} bd
/RE { % /NewFontName [NewEncodingArray] /FontName RE -
  findfont dup length dict begin
  {
    1 index /FID ne
    {def} {pop pop} ifelse
  } forall
  /Encoding exch def
  /FontName 1 index def
  currentdict definefont pop
  end
} bind def
%%EndResource
%%BeginResource: procset (Apache XML Graphics EPS ProcSet) 1.0 0
%%Version: 1.0 0
%%Copyright: (Copyright 2002-2003 The Apache Software Foundation. License terms: http://www.apache.org/licenses/LICENSE-2.0)
/BeginEPSF { %def
/b4_Inc_state save def         % Save state for cleanup
/dict_count countdictstack def % Count objects on dict stack
/op_count count 1 sub def      % Count objects on operand stack
userdict begin                 % Push userdict on dict stack
/showpage { } def              % Redefine showpage, { } = null proc
0 setgray 0 setlinecap         % Prepare graphics state
1 setlinewidth 0 setlinejoin
10 setmiterlimit [ ] 0 setdash newpath
/languagelevel where           % If level not equal to 1 then
{pop languagelevel             % set strokeadjust and
1 ne                           % overprint to their defaults.
{false setstrokeadjust false setoverprint
} if
} if
} bd
/EndEPSF { %def
count op_count sub {pop} repeat            % Clean up stacks
countdictstack dict_count sub {end} repeat
b4_Inc_state restore
} bd
%%EndResource
%FOPBeginFontDict
%%IncludeResource: font Courier-Oblique
%%IncludeResource: font Courier-BoldOblique
%%IncludeResource: font Courier-Bold
%%IncludeResource: font ZapfDingbats
%%IncludeResource: font Symbol
%%IncludeResource: font Helvetica
%%IncludeResource: font Helvetica-Oblique
%%IncludeResource: font Helvetica-Bold
%%IncludeResource: font Helvetica-BoldOblique
%%IncludeResource: font Times-Roman
%%IncludeResource: font Times-Italic
%%IncludeResource: font Times-Bold
%%IncludeResource: font Times-BoldItalic
%%IncludeResource: font Courier
%FOPEndFontDict
%%BeginResource: encoding WinAnsiEncoding
/WinAnsiEncoding [
/.notdef /.notdef /.notdef /.notdef /.notdef
/.notdef /.notdef /.notdef /.notdef /.notdef
/.notdef /.notdef /.notdef /.notdef /.notdef
/.notdef /.notdef /.notdef /.notdef /.notdef
/.notdef /.notdef /.notdef /.notdef /.notdef
/.notdef /.notdef /.notdef /.notdef /.notdef
/.notdef /.notdef /space /exclam /quotedbl
/numbersign /dollar /percent /ampersand /quotesingle
/parenleft /parenright /asterisk /plus /comma
/hyphen /period /slash /zero /one
/two /three /four /five /six
/seven /eight /nine /colon /semicolon
/less /equal /greater /question /at
/A /B /C /D /E
/F /G /H /I /J
/K /L /M /N /O
/P /Q /R /S /T
/U /V /W /X /Y
/Z /bracketleft /backslash /bracketright /asciicircum
/underscore /quoteleft /a /b /c
/d /e /f /g /h
/i /j /k /l /m
/n /o /p /q /r
/s /t /u /v /w
/x /y /z /braceleft /bar
/braceright /asciitilde /bullet /Euro /bullet
/quotesinglbase /florin /quotedblbase /ellipsis /dagger
/daggerdbl /circumflex /perthousand /Scaron /guilsinglleft
/OE /bullet /Zcaron /bullet /bullet
/quoteleft /quoteright /quotedblleft /quotedblright /bullet
/endash /emdash /asciitilde /trademark /scaron
/guilsinglright /oe /bullet /zcaron /Ydieresis
/space /exclamdown /cent /sterling /currency
/yen /brokenbar /section /dieresis /copyright
/ordfeminine /guillemotleft /logicalnot /sfthyphen /registered
/macron /degree /plusminus /twosuperior /threesuperior
/acute /mu /paragraph /middot /cedilla
/onesuperior /ordmasculine /guillemotright /onequarter /onehalf
/threequarters /questiondown /Agrave /Aacute /Acircumflex
/Atilde /Adieresis /Aring /AE /Ccedilla
/Egrave /Eacute /Ecircumflex /Edieresis /Igrave
/Iacute /Icircumflex /Idieresis /Eth /Ntilde
/Ograve /Oacute /Ocircumflex /Otilde /Odieresis
/multiply /Oslash /Ugrave /Uacute /Ucircumflex
/Udieresis /Yacute /Thorn /germandbls /agrave
/aacute /acircumflex /atilde /adieresis /aring
/ae /ccedilla /egrave /eacute /ecircumflex
/edieresis /igrave /iacute /icircumflex /idieresis
/eth /ntilde /ograve /oacute /ocircumflex
/otilde /odieresis /divide /oslash /ugrave
/uacute /ucircumflex /udieresis /yacute /thorn
/ydieresis
] def
%%EndResource
%FOPBeginFontReencode
/Courier-Oblique findfont
dup length dict begin
  {1 index /FID ne {def} {pop pop} ifelse} forall
  /Encoding WinAnsiEncoding def
  currentdict
end
/Courier-Oblique exch definefont pop
/Courier-BoldOblique findfont
dup length dict begin
  {1 index /FID ne {def} {pop pop} ifelse} forall
  /Encoding WinAnsiEncoding def
  currentdict
end
/Courier-BoldOblique exch definefont pop
/Courier-Bold findfont
dup length dict begin
  {1 index /FID ne {def} {pop pop} ifelse} forall
  /Encoding WinAnsiEncoding def
  currentdict
end
/Courier-Bold exch definefont pop
/Helvetica findfont
dup length dict begin
  {1 index /FID ne {def} {pop pop} ifelse} forall
  /Encoding WinAnsiEncoding def
  currentdict
end
/Helvetica exch definefont pop
/Helvetica-Oblique findfont
dup length dict begin
  {1 index /FID ne {def} {pop pop} ifelse} forall
  /Encoding WinAnsiEncoding def
  currentdict
end
/Helvetica-Oblique exch definefont pop
/Helvetica-Bold findfont
dup length dict begin
  {1 index /FID ne {def} {pop pop} ifelse} forall
  /Encoding WinAnsiEncoding def
  currentdict
end
/Helvetica-Bold exch definefont pop
/Helvetica-BoldOblique findfont
dup length dict begin
  {1 index /FID ne {def} {pop pop} ifelse} forall
  /Encoding WinAnsiEncoding def
  currentdict
end
/Helvetica-BoldOblique exch definefont pop
/Times-Roman findfont
dup length dict begin
  {1 index /FID ne {def} {pop pop} ifelse} forall
  /Encoding WinAnsiEncoding def
  currentdict
end
/Times-Roman exch definefont pop
/Times-Italic findfont
dup length dict begin
  {1 index /FID ne {def} {pop pop} ifelse} forall
  /Encoding WinAnsiEncoding def
  currentdict
end
/Times-Italic exch definefont pop
/Times-Bold findfont
dup length dict begin
  {1 index /FID ne {def} {pop pop} ifelse} forall
  /Encoding WinAnsiEncoding def
  currentdict
end
/Times-Bold exch definefont pop
/Times-BoldItalic findfont
dup length dict begin
  {1 index /FID ne {def} {pop pop} ifelse} forall
  /Encoding WinAnsiEncoding def
  currentdict
end
/Times-BoldItalic exch definefont pop
/Courier findfont
dup length dict begin
  {1 index /FID ne {def} {pop pop} ifelse} forall
  /Encoding WinAnsiEncoding def
  currentdict
end
/Courier exch definefont pop
%FOPEndFontReencode
%%EndProlog
%%Page: 1 1
%%PageBoundingBox: 0 0 420 315
%%BeginPageSetup
[1 0 0 -1 0 315] CT
%%EndPageSetup
GS
[0.6 0 0 0.6 0 0] CT
1 GC
N
0 0 700 525 re
f
GR
GS
[0.6 0 0 0.6 0 0] CT
1 GC
N
0 0 700 525 re
f
GR
GS
[0.6 0 0 0.6 0 0] CT
1 GC
N
91 467 M
634 467 L
634 39 L
91 39 L
cp
f
GR
GS
[0.6 0 0 0.6 0 0] CT
0.149 GC
2 setlinecap
1 LJ
0.833 LW
N
91 467 M
634 467 L
S
GR
GS
[0.6 0 0 0.6 0 0] CT
0.149 GC
2 setlinecap
1 LJ
0.833 LW
N
91 467 M
91 461.569 L
S
GR
GS
[0.6 0 0 0.6 0 0] CT
0.149 GC
2 setlinecap
1 LJ
0.833 LW
N
145.3 467 M
145.3 461.569 L
S
GR
GS
[0.6 0 0 0.6 0 0] CT
0.149 GC
2 setlinecap
1 LJ
0.833 LW
N
199.6 467 M
199.6 461.569 L
S
GR
GS
[0.6 0 0 0.6 0 0] CT
0.149 GC
2 setlinecap
1 LJ
0.833 LW
N
253.9 467 M
253.9 461.569 L
S
GR
GS
[0.6 0 0 0.6 0 0] CT
0.149 GC
2 setlinecap
1 LJ
0.833 LW
N
308.2 467 M
308.2 461.569 L
S
GR
GS
[0.6 0 0 0.6 0 0] CT
0.149 GC
2 setlinecap
1 LJ
0.833 LW
N
362.5 467 M
362.5 461.569 L
S
GR
GS
[0.6 0 0 0.6 0 0] CT
0.149 GC
2 setlinecap
1 LJ
0.833 LW
N
416.8 467 M
416.8 461.569 L
S
GR
GS
[0.6 0 0 0.6 0 0] CT
0.149 GC
2 setlinecap
1 LJ
0.833 LW
N
471.1 467 M
471.1 461.569 L
S
GR
GS
[0.6 0 0 0.6 0 0] CT
0.149 GC
2 setlinecap
1 LJ
0.833 LW
N
525.4 467 M
525.4 461.569 L
S
GR
GS
[0.6 0 0 0.6 0 0] CT
0.149 GC
2 setlinecap
1 LJ
0.833 LW
N
579.7 467 M
579.7 461.569 L
S
GR
GS
[0.6 0 0 0.6 0 0] CT
0.149 GC
2 setlinecap
1 LJ
0.833 LW
N
634 467 M
634 461.569 L
S
GR
GS
[0.6 0 0 0.6 54.6 284.20063] CT
0.149 GC
/Helvetica 16.667 F
GS
[1 0 0 1 0 0] CT
-5 17 moveto 
1 -1 scale
(0) t 
GR
GR
GS
[0.6 0 0 0.6 87.18 284.20063] CT
0.149 GC
/Helvetica 16.667 F
GS
[1 0 0 1 0 0] CT
-9.5 17 moveto 
1 -1 scale
(50) t 
GR
GR
GS
[0.6 0 0 0.6 119.76 284.20063] CT
0.149 GC
/Helvetica 16.667 F
GS
[1 0 0 1 0 0] CT
-14 17 moveto 
1 -1 scale
(100) t 
GR
GR
GS
[0.6 0 0 0.6 152.34 284.20063] CT
0.149 GC
/Helvetica 16.667 F
GS
[1 0 0 1 0 0] CT
-14 17 moveto 
1 -1 scale
(150) t 
GR
GR
GS
[0.6 0 0 0.6 184.92001 284.20063] CT
0.149 GC
/Helvetica 16.667 F
GS
[1 0 0 1 0 0] CT
-14 17 moveto 
1 -1 scale
(200) t 
GR
GR
GS
[0.6 0 0 0.6 217.5 284.20063] CT
0.149 GC
/Helvetica 16.667 F
GS
[1 0 0 1 0 0] CT
-14 17 moveto 
1 -1 scale
(250) t 
GR
GR
GS
[0.6 0 0 0.6 250.07999 284.20063] CT
0.149 GC
/Helvetica 16.667 F
GS
[1 0 0 1 0 0] CT
-14 17 moveto 
1 -1 scale
(300) t 
GR
GR
GS
[0.6 0 0 0.6 282.66 284.20063] CT
0.149 GC
/Helvetica 16.667 F
GS
[1 0 0 1 0 0] CT
-14 17 moveto 
1 -1 scale
(350) t 
GR
GR
GS
[0.6 0 0 0.6 315.24001 284.20063] CT
0.149 GC
/Helvetica 16.667 F
GS
[1 0 0 1 0 0] CT
-14 17 moveto 
1 -1 scale
(400) t 
GR
GR
GS
[0.6 0 0 0.6 347.82001 284.20063] CT
0.149 GC
/Helvetica 16.667 F
GS
[1 0 0 1 0 0] CT
-14 17 moveto 
1 -1 scale
(450) t 
GR
GR
GS
[0.6 0 0 0.6 380.4 284.20063] CT
0.149 GC
/Helvetica 16.667 F
GS
[1 0 0 1 0 0] CT
-14 17 moveto 
1 -1 scale
(500) t 
GR
GR
GS
[0.6 0 0 0.6 217.50016 297.80045] CT
0.149 GC
/Helvetica 18.333 F
GS
[1 0 0 1 0 0] CT
-91.5 19 moveto 
1 -1 scale
(Computational time [s]) t 
GR
GR
GS
[0.6 0 0 0.6 0 0] CT
0.149 GC
2 setlinecap
1 LJ
0.833 LW
N
91 467 M
91 39 L
S
GR
GS
[0.6 0 0 0.6 0 0] CT
0.149 GC
2 setlinecap
1 LJ
0.833 LW
N
91 467 M
96.43 467 L
S
GR
GS
[0.6 0 0 0.6 0 0] CT
0.149 GC
2 setlinecap
1 LJ
0.833 LW
N
91 409.162 M
96.43 409.162 L
S
GR
GS
[0.6 0 0 0.6 0 0] CT
0.149 GC
2 setlinecap
1 LJ
0.833 LW
N
91 351.324 M
96.43 351.324 L
S
GR
GS
[0.6 0 0 0.6 0 0] CT
0.149 GC
2 setlinecap
1 LJ
0.833 LW
N
91 293.486 M
96.43 293.486 L
S
GR
GS
[0.6 0 0 0.6 0 0] CT
0.149 GC
2 setlinecap
1 LJ
0.833 LW
N
91 235.649 M
96.43 235.649 L
S
GR
GS
[0.6 0 0 0.6 0 0] CT
0.149 GC
2 setlinecap
1 LJ
0.833 LW
N
91 177.811 M
96.43 177.811 L
S
GR
GS
[0.6 0 0 0.6 0 0] CT
0.149 GC
2 setlinecap
1 LJ
0.833 LW
N
91 119.973 M
96.43 119.973 L
S
GR
GS
[0.6 0 0 0.6 0 0] CT
0.149 GC
2 setlinecap
1 LJ
0.833 LW
N
91 62.135 M
96.43 62.135 L
S
GR
GS
[0.6 0 0 0.6 50.6 280.2] CT
0.149 GC
/Helvetica 16.667 F
GS
[1 0 0 1 0 0] CT
-43 6.5 moveto 
1 -1 scale
(-5720) t 
GR
GR
GS
[0.6 0 0 0.6 50.6 245.4973] CT
0.149 GC
/Helvetica 16.667 F
GS
[1 0 0 1 0 0] CT
-43 6.5 moveto 
1 -1 scale
(-5710) t 
GR
GR
GS
[0.6 0 0 0.6 50.6 210.79459] CT
0.149 GC
/Helvetica 16.667 F
GS
[1 0 0 1 0 0] CT
-43 6.5 moveto 
1 -1 scale
(-5700) t 
GR
GR
GS
[0.6 0 0 0.6 50.6 176.09189] CT
0.149 GC
/Helvetica 16.667 F
GS
[1 0 0 1 0 0] CT
-43 6.5 moveto 
1 -1 scale
(-5690) t 
GR
GR
GS
[0.6 0 0 0.6 50.6 141.38919] CT
0.149 GC
/Helvetica 16.667 F
GS
[1 0 0 1 0 0] CT
-43 6.5 moveto 
1 -1 scale
(-5680) t 
GR
GR
GS
[0.6 0 0 0.6 50.6 106.68648] CT
0.149 GC
/Helvetica 16.667 F
GS
[1 0 0 1 0 0] CT
-43 6.5 moveto 
1 -1 scale
(-5670) t 
GR
GR
GS
[0.6 0 0 0.6 50.6 71.98379] CT
0.149 GC
/Helvetica 16.667 F
GS
[1 0 0 1 0 0] CT
-43 6.5 moveto 
1 -1 scale
(-5660) t 
GR
GR
GS
[0.6 0 0 0.6 50.6 37.28108] CT
0.149 GC
/Helvetica 16.667 F
GS
[1 0 0 1 0 0] CT
-43 6.5 moveto 
1 -1 scale
(-5650) t 
GR
GR
GS
[0 -0.6 0.6 0 21.8 151.8] CT
0.149 GC
/Helvetica 18.333 F
GS
[1 0 0 1 0 0] CT
-29 -5 moveto 
1 -1 scale
(ln\(p\(y\)\)) t 
GR
GR
GS
[0.6 0 0 0.6 217.5002 21.74959] CT
/Helvetica-Bold 18.333 F
GS
[1 0 0 1 0 0] CT
-166 -5 moveto 
1 -1 scale
(Log-likelihood vs. Computational time) t 
GR
GR
GS
[0.6 0 0 0.6 0 0] CT
0.988 0.802 0.9 RC
N
94.258 84.881 M
93.172 105.288 L
92.536 467.051 L
122.652 467.051 L
123.924 467.051 L
125.228 467.051 L
126.563 467.051 L
127.931 467.051 L
129.332 467.051 L
130.768 467.051 L
132.238 467.051 L
133.744 467.051 L
135.287 467.051 L
136.866 467.051 L
138.484 467.051 L
140.141 467.051 L
141.837 467.051 L
143.575 467.051 L
145.354 467.051 L
147.175 467.051 L
149.041 467.051 L
150.951 467.051 L
151.929 467.051 L
153.442 467.051 L
153.46 467.051 L
153.477 467.051 L
154.995 467.051 L
154.998 467.051 L
155 467.051 L
155.264 467.051 L
156.16 462.51 L
157.246 457.087 L
158.332 451.741 L
159.418 446.474 L
160.504 441.281 L
161.59 436.161 L
162.676 431.111 L
163.762 426.132 L
164.848 421.224 L
165.934 416.381 L
167.02 411.605 L
168.106 406.894 L
169.192 402.249 L
170.278 397.665 L
171.364 393.141 L
172.45 388.679 L
173.536 384.276 L
174.622 379.93 L
175.708 375.643 L
176.794 371.412 L
177.88 367.235 L
178.966 363.115 L
180.052 359.045 L
181.138 355.03 L
182.224 351.067 L
183.31 347.156 L
184.396 343.293 L
185.482 339.48 L
186.568 335.718 L
187.654 332.002 L
188.74 328.333 L
189.826 324.713 L
190.912 321.137 L
191.998 317.607 L
193.084 314.122 L
194.17 310.68 L
195.256 307.282 L
196.342 303.927 L
197.428 300.617 L
198.514 297.344 L
199.6 294.116 L
200.686 290.928 L
201.772 287.779 L
202.858 284.67 L
203.944 281.6 L
205.03 278.567 L
206.116 275.576 L
207.202 272.619 L
208.288 269.699 L
209.374 266.818 L
210.46 263.972 L
211.546 261.162 L
212.632 258.388 L
213.718 255.646 L
214.804 252.941 L
215.89 250.269 L
216.976 247.631 L
218.062 245.028 L
219.148 242.455 L
220.234 239.916 L
221.32 237.408 L
222.406 234.931 L
223.492 232.486 L
224.578 230.071 L
225.664 227.687 L
226.75 225.335 L
227.836 223.011 L
228.922 220.715 L
230.008 218.45 L
231.094 216.213 L
232.18 214.005 L
233.266 211.824 L
234.352 209.672 L
235.438 207.546 L
236.524 205.448 L
237.61 203.375 L
238.696 201.33 L
239.782 199.311 L
240.868 197.317 L
241.954 195.349 L
243.04 193.406 L
244.126 191.485 L
245.212 189.593 L
246.298 187.723 L
247.384 185.876 L
248.47 184.055 L
249.556 182.256 L
250.642 180.48 L
251.728 178.729 L
252.814 176.997 L
253.9 175.289 L
254.986 173.603 L
256.072 171.939 L
257.158 170.299 L
258.244 168.678 L
259.33 167.076 L
260.416 165.498 L
261.502 163.936 L
262.588 162.4 L
263.674 160.88 L
264.76 159.381 L
265.846 157.901 L
266.932 156.441 L
268.018 154.998 L
269.104 153.577 L
270.19 152.174 L
271.276 150.787 L
272.362 149.42 L
273.448 148.07 L
274.534 146.737 L
275.62 145.424 L
276.706 144.128 L
277.792 142.845 L
278.878 141.583 L
279.964 140.338 L
281.05 139.106 L
282.136 137.892 L
283.222 136.695 L
284.308 135.511 L
285.394 134.345 L
286.48 133.195 L
287.566 132.057 L
288.652 130.939 L
289.738 129.832 L
290.824 128.742 L
291.91 127.663 L
292.996 126.601 L
294.082 125.553 L
295.168 124.52 L
296.254 123.497 L
297.34 122.492 L
298.426 121.498 L
299.512 120.518 L
300.598 119.549 L
301.684 118.595 L
302.77 117.654 L
303.856 116.725 L
304.942 115.81 L
306.028 114.907 L
307.114 114.014 L
308.2 113.133 L
309.286 112.266 L
310.372 111.407 L
311.458 110.563 L
312.544 109.73 L
313.63 108.908 L
314.716 108.095 L
315.802 107.296 L
316.888 106.508 L
317.974 105.728 L
319.06 104.96 L
320.146 104.2 L
321.232 103.452 L
322.318 102.715 L
323.404 101.989 L
324.49 101.269 L
325.576 100.563 L
326.662 99.862 L
327.748 99.176 L
328.834 98.496 L
329.92 97.826 L
331.006 97.163 L
332.092 96.51 L
333.178 95.869 L
334.264 95.234 L
335.35 94.607 L
336.436 93.991 L
337.522 93.381 L
338.608 92.78 L
339.694 92.187 L
340.78 91.602 L
341.866 91.026 L
342.952 90.458 L
344.038 89.896 L
345.124 89.345 L
346.21 88.798 L
347.296 88.261 L
348.382 87.73 L
349.468 87.208 L
350.554 86.691 L
351.64 86.18 L
352.726 85.68 L
353.812 85.183 L
354.898 84.694 L
355.984 84.214 L
357.07 83.737 L
358.156 83.268 L
359.242 82.808 L
360.328 82.35 L
361.414 81.901 L
362.5 81.458 L
363.586 81.02 L
364.672 80.588 L
365.758 80.164 L
366.844 79.743 L
367.93 79.331 L
369.016 78.922 L
370.102 78.521 L
371.188 78.122 L
372.274 77.733 L
373.36 77.346 L
374.446 76.965 L
375.532 76.589 L
376.618 76.219 L
377.704 75.855 L
378.79 75.493 L
379.876 75.137 L
380.962 74.787 L
382.048 74.443 L
383.134 74.101 L
384.22 73.765 L
385.306 73.434 L
386.392 73.107 L
387.478 72.785 L
388.564 72.469 L
389.65 72.155 L
390.736 71.844 L
391.822 71.539 L
392.908 71.24 L
393.994 70.944 L
395.08 70.653 L
396.166 70.362 L
397.252 70.079 L
398.338 69.797 L
399.424 69.523 L
400.51 69.249 L
401.596 68.981 L
402.682 68.715 L
403.768 68.453 L
404.854 68.196 L
405.94 67.942 L
407.026 67.69 L
408.112 67.444 L
409.198 67.199 L
410.284 66.959 L
411.37 66.721 L
412.456 66.487 L
413.542 66.258 L
414.628 66.03 L
415.714 65.806 L
416.8 65.583 L
417.886 65.366 L
418.972 65.151 L
420.058 64.939 L
421.144 64.73 L
422.23 64.522 L
423.316 64.318 L
424.402 64.118 L
425.488 63.92 L
426.574 63.725 L
427.66 63.533 L
428.746 63.344 L
429.832 63.155 L
430.918 62.971 L
432.004 62.79 L
433.09 62.61 L
434.176 62.432 L
435.262 62.259 L
436.348 62.087 L
437.434 61.915 L
438.52 61.748 L
439.606 61.584 L
440.692 61.421 L
441.778 61.26 L
442.864 61.102 L
443.95 60.946 L
445.036 60.791 L
446.122 60.641 L
447.208 60.489 L
448.294 60.342 L
449.38 60.195 L
450.466 60.054 L
451.552 59.91 L
452.638 59.771 L
453.724 59.633 L
454.81 59.497 L
455.896 59.362 L
456.982 59.229 L
458.068 59.099 L
459.154 58.972 L
460.24 58.845 L
461.326 58.718 L
462.412 58.597 L
463.498 58.472 L
464.584 58.354 L
465.67 58.235 L
466.756 58.119 L
467.842 58.003 L
468.928 57.89 L
470.014 57.778 L
471.1 57.667 L
472.186 57.557 L
473.272 57.45 L
474.358 57.343 L
475.444 57.238 L
476.53 57.136 L
477.616 57.035 L
478.702 56.933 L
479.788 56.834 L
480.874 56.738 L
481.96 56.639 L
483.046 56.546 L
484.132 56.453 L
485.218 56.36 L
486.304 56.267 L
487.39 56.179 L
488.476 56.089 L
489.562 56.001 L
490.648 55.916 L
491.734 55.829 L
492.82 55.747 L
493.906 55.662 L
494.992 55.58 L
496.078 55.501 L
497.164 55.422 L
498.25 55.343 L
499.336 55.264 L
500.422 55.188 L
501.508 55.114 L
502.594 55.038 L
503.68 54.965 L
504.766 54.894 L
505.852 54.821 L
506.938 54.753 L
508.024 54.682 L
509.11 54.615 L
510.196 54.547 L
511.282 54.479 L
512.368 54.414 L
513.454 54.349 L
514.54 54.284 L
515.626 54.222 L
516.712 54.16 L
517.798 54.098 L
518.884 54.036 L
519.97 53.976 L
521.056 53.917 L
522.142 53.86 L
523.228 53.801 L
524.314 53.745 L
525.4 53.688 L
526.486 53.635 L
527.572 53.578 L
528.658 53.524 L
529.744 53.474 L
530.83 53.42 L
531.916 53.369 L
533.002 53.318 L
534.088 53.267 L
535.174 53.217 L
536.26 53.169 L
537.346 53.121 L
538.432 53.073 L
539.518 53.025 L
540.604 52.979 L
541.69 52.931 L
542.776 52.886 L
543.862 52.844 L
544.948 52.799 L
546.034 52.756 L
547.12 52.711 L
548.206 52.669 L
549.292 52.629 L
550.378 52.587 L
551.464 52.547 L
552.55 52.505 L
553.636 52.465 L
554.722 52.426 L
555.808 52.389 L
556.894 52.35 L
557.98 52.313 L
559.066 52.276 L
560.152 52.239 L
561.238 52.203 L
562.324 52.166 L
563.41 52.132 L
564.496 52.095 L
565.582 52.062 L
566.668 52.028 L
567.754 51.994 L
568.84 51.96 L
569.926 51.929 L
571.012 51.895 L
572.098 51.864 L
573.184 51.833 L
574.27 51.802 L
575.356 51.771 L
576.442 51.74 L
577.528 51.711 L
578.614 51.68 L
579.7 51.652 L
580.786 51.624 L
581.872 51.596 L
582.958 51.567 L
584.044 51.539 L
585.13 51.511 L
586.216 51.485 L
587.302 51.457 L
588.388 51.432 L
589.474 51.406 L
590.56 51.378 L
591.646 51.353 L
592.732 51.33 L
593.818 51.305 L
594.904 51.279 L
595.99 51.257 L
597.076 51.231 L
598.162 51.209 L
599.248 51.186 L
600.334 51.161 L
601.42 51.138 L
602.506 51.118 L
603.592 51.096 L
604.678 51.073 L
605.764 51.05 L
606.85 51.031 L
607.936 51.008 L
609.022 50.988 L
610.108 50.969 L
611.194 50.946 L
612.28 50.926 L
613.366 50.906 L
614.452 50.887 L
615.538 50.867 L
616.624 50.85 L
617.71 50.83 L
618.796 50.81 L
619.882 50.793 L
620.968 50.774 L
622.054 50.757 L
623.14 50.74 L
624.226 50.72 L
625.312 50.703 L
626.398 50.686 L
627.484 50.669 L
628.57 50.652 L
629.656 50.635 L
630.742 50.621 L
631.828 50.604 L
632.914 50.587 L
634 50.573 L
634.065 50.572 L
634.065 49.199 L
634.065 49.113 L
634 49.113 L
632.914 49.116 L
631.828 49.119 L
630.742 49.122 L
629.656 49.122 L
628.57 49.124 L
627.484 49.127 L
626.398 49.13 L
625.312 49.133 L
624.226 49.133 L
623.14 49.136 L
622.054 49.139 L
620.968 49.141 L
619.882 49.144 L
618.796 49.147 L
617.71 49.147 L
616.624 49.15 L
615.538 49.153 L
614.452 49.156 L
613.366 49.158 L
612.28 49.161 L
611.194 49.161 L
610.108 49.164 L
609.022 49.167 L
607.936 49.17 L
606.85 49.172 L
605.764 49.175 L
604.678 49.178 L
603.592 49.178 L
602.506 49.181 L
601.42 49.184 L
600.334 49.187 L
599.248 49.189 L
598.162 49.192 L
597.076 49.195 L
595.99 49.198 L
594.904 49.198 L
593.818 49.201 L
592.732 49.204 L
591.646 49.206 L
590.56 49.209 L
589.474 49.212 L
588.388 49.215 L
587.302 49.218 L
586.216 49.22 L
585.13 49.22 L
584.044 49.223 L
582.958 49.226 L
581.872 49.229 L
580.786 49.232 L
579.7 49.235 L
578.614 49.237 L
577.528 49.24 L
576.442 49.243 L
575.356 49.246 L
574.27 49.249 L
573.184 49.249 L
572.098 49.252 L
571.012 49.254 L
569.926 49.257 L
568.84 49.26 L
567.754 49.263 L
566.668 49.266 L
565.582 49.268 L
564.496 49.271 L
563.41 49.274 L
562.324 49.277 L
561.238 49.28 L
560.152 49.283 L
559.066 49.285 L
557.98 49.288 L
556.894 49.291 L
555.808 49.294 L
554.722 49.297 L
553.636 49.3 L
552.55 49.302 L
551.464 49.305 L
550.378 49.308 L
549.292 49.308 L
548.206 49.311 L
547.12 49.314 L
546.034 49.316 L
544.948 49.319 L
543.862 49.322 L
542.776 49.325 L
541.69 49.328 L
540.604 49.331 L
539.518 49.333 L
538.432 49.339 L
537.346 49.342 L
536.26 49.345 L
535.174 49.348 L
534.088 49.35 L
533.002 49.353 L
531.916 49.356 L
530.83 49.359 L
529.744 49.362 L
528.658 49.364 L
527.572 49.367 L
526.486 49.37 L
525.4 49.373 L
524.314 49.376 L
523.228 49.379 L
522.142 49.381 L
521.056 49.384 L
519.97 49.387 L
518.884 49.39 L
517.798 49.393 L
516.712 49.396 L
515.626 49.401 L
514.54 49.404 L
513.454 49.407 L
512.368 49.41 L
511.282 49.413 L
510.196 49.415 L
509.11 49.418 L
508.024 49.421 L
506.938 49.424 L
505.852 49.427 L
504.766 49.432 L
503.68 49.435 L
502.594 49.438 L
501.508 49.441 L
500.422 49.444 L
499.336 49.446 L
498.25 49.449 L
497.164 49.455 L
496.078 49.458 L
494.992 49.461 L
493.906 49.463 L
492.82 49.466 L
491.734 49.469 L
490.648 49.472 L
489.562 49.477 L
488.476 49.48 L
487.39 49.483 L
486.304 49.486 L
485.218 49.489 L
484.132 49.494 L
483.046 49.497 L
481.96 49.5 L
480.874 49.503 L
479.788 49.506 L
478.702 49.511 L
477.616 49.514 L
476.53 49.517 L
475.444 49.52 L
474.358 49.523 L
473.272 49.528 L
472.186 49.531 L
471.1 49.534 L
470.014 49.537 L
468.928 49.542 L
467.842 49.545 L
466.756 49.548 L
465.67 49.554 L
464.584 49.557 L
463.498 49.559 L
462.412 49.562 L
461.326 49.568 L
460.24 49.571 L
459.154 49.573 L
458.068 49.579 L
456.982 49.582 L
455.896 49.585 L
454.81 49.588 L
453.724 49.593 L
452.638 49.596 L
451.552 49.599 L
450.466 49.605 L
449.38 49.607 L
448.294 49.61 L
447.208 49.616 L
446.122 49.619 L
445.036 49.624 L
443.95 49.627 L
442.864 49.63 L
441.778 49.636 L
440.692 49.638 L
439.606 49.641 L
438.52 49.647 L
437.434 49.65 L
436.348 49.655 L
435.262 49.658 L
434.176 49.661 L
433.09 49.667 L
432.004 49.669 L
430.918 49.675 L
429.832 49.678 L
428.746 49.684 L
427.66 49.686 L
426.574 49.692 L
425.488 49.695 L
424.402 49.698 L
423.316 49.703 L
422.23 49.706 L
421.144 49.712 L
420.058 49.715 L
418.972 49.72 L
417.886 49.723 L
416.8 49.729 L
415.714 49.732 L
414.628 49.737 L
413.542 49.743 L
412.456 49.746 L
411.37 49.751 L
410.284 49.754 L
409.198 49.76 L
408.112 49.763 L
407.026 49.768 L
405.94 49.774 L
404.854 49.777 L
403.768 49.782 L
402.682 49.785 L
401.596 49.791 L
400.51 49.797 L
399.424 49.799 L
398.338 49.805 L
397.252 49.808 L
396.166 49.814 L
395.08 49.819 L
393.994 49.822 L
392.908 49.828 L
391.822 49.833 L
390.736 49.839 L
389.65 49.842 L
388.564 49.847 L
387.478 49.853 L
386.392 49.856 L
385.306 49.862 L
384.22 49.867 L
383.134 49.873 L
382.048 49.876 L
380.962 49.881 L
379.876 49.887 L
378.79 49.893 L
377.704 49.895 L
376.618 49.901 L
375.532 49.907 L
374.446 49.912 L
373.36 49.918 L
372.274 49.924 L
371.188 49.926 L
370.102 49.932 L
369.016 49.938 L
367.93 49.943 L
366.844 49.949 L
365.758 49.955 L
364.672 49.96 L
363.586 49.966 L
362.5 49.972 L
361.414 49.977 L
360.328 49.983 L
359.242 49.986 L
358.156 49.991 L
357.07 49.997 L
355.984 50.003 L
354.898 50.008 L
353.812 50.014 L
352.726 50.02 L
351.64 50.028 L
350.554 50.034 L
349.468 50.039 L
348.382 50.045 L
347.296 50.051 L
346.21 50.056 L
345.124 50.062 L
344.038 50.068 L
342.952 50.076 L
341.866 50.082 L
340.78 50.087 L
339.694 50.093 L
338.608 50.099 L
337.522 50.104 L
336.436 50.113 L
335.35 50.119 L
334.264 50.124 L
333.178 50.13 L
332.092 50.138 L
331.006 50.144 L
329.92 50.15 L
328.834 50.158 L
327.748 50.164 L
326.662 50.169 L
325.576 50.178 L
324.49 50.183 L
323.404 50.189 L
322.318 50.198 L
321.232 50.203 L
320.146 50.212 L
319.06 50.217 L
317.974 50.223 L
316.888 50.231 L
315.802 50.237 L
314.716 50.246 L
313.63 50.251 L
312.544 50.26 L
311.458 50.268 L
310.372 50.274 L
309.286 50.282 L
308.2 50.288 L
307.114 50.296 L
306.028 50.305 L
304.942 50.311 L
303.856 50.319 L
302.77 50.328 L
301.684 50.336 L
300.598 50.342 L
299.512 50.35 L
298.426 50.359 L
297.34 50.367 L
296.254 50.373 L
295.168 50.381 L
294.082 50.39 L
292.996 50.398 L
291.91 50.407 L
290.824 50.415 L
289.738 50.424 L
288.652 50.432 L
287.566 50.44 L
286.48 50.449 L
285.394 50.457 L
284.308 50.466 L
283.222 50.474 L
282.136 50.483 L
281.05 50.491 L
279.964 50.503 L
278.878 50.511 L
277.792 50.52 L
276.706 50.528 L
275.62 50.537 L
274.534 50.548 L
273.448 50.556 L
272.362 50.565 L
271.276 50.576 L
270.19 50.585 L
269.104 50.596 L
268.018 50.604 L
266.932 50.616 L
265.846 50.624 L
264.76 50.635 L
263.674 50.644 L
262.588 50.655 L
261.502 50.666 L
260.416 50.675 L
259.33 50.686 L
258.244 50.697 L
257.158 50.709 L
256.072 50.72 L
254.986 50.729 L
253.9 50.74 L
252.814 50.751 L
251.728 50.762 L
250.642 50.774 L
249.556 50.785 L
248.47 50.799 L
247.384 50.81 L
246.298 50.822 L
245.212 50.833 L
244.126 50.844 L
243.04 50.858 L
241.954 50.87 L
240.868 50.884 L
239.782 50.895 L
238.696 50.909 L
237.61 50.921 L
236.524 50.935 L
235.438 50.949 L
234.352 50.96 L
233.266 50.974 L
232.18 50.988 L
231.094 51.002 L
230.008 51.017 L
228.922 51.031 L
227.836 51.045 L
226.75 51.059 L
225.664 51.076 L
224.578 51.09 L
223.492 51.104 L
222.406 51.121 L
221.32 51.135 L
220.234 51.152 L
219.148 51.169 L
218.062 51.183 L
216.976 51.2 L
215.89 51.217 L
214.804 51.234 L
213.718 51.251 L
212.632 51.271 L
211.546 51.288 L
210.46 51.305 L
209.374 51.324 L
208.288 51.341 L
207.202 51.361 L
206.116 51.381 L
205.03 51.401 L
203.944 51.42 L
202.858 51.44 L
201.772 51.463 L
200.686 51.483 L
199.6 51.505 L
198.514 51.528 L
197.428 51.548 L
196.342 51.573 L
195.256 51.596 L
194.17 51.618 L
193.084 51.644 L
191.998 51.666 L
190.912 51.692 L
189.826 51.72 L
188.74 51.745 L
187.654 51.771 L
186.568 51.799 L
185.482 51.827 L
184.396 51.855 L
183.31 51.886 L
182.224 51.917 L
181.138 51.949 L
180.052 51.98 L
178.966 52.011 L
177.88 52.045 L
176.794 52.078 L
175.708 52.115 L
174.622 52.152 L
173.536 52.189 L
172.45 52.225 L
171.364 52.265 L
170.278 52.307 L
169.192 52.347 L
168.106 52.389 L
167.02 52.431 L
165.934 52.474 L
164.848 52.519 L
163.762 52.567 L
162.676 52.615 L
161.59 52.666 L
160.504 52.72 L
159.418 52.773 L
158.332 52.83 L
157.246 52.889 L
156.16 52.951 L
155.074 53.016 L
153.988 53.084 L
152.902 53.152 L
151.816 53.225 L
150.73 53.301 L
149.644 53.38 L
148.558 53.459 L
147.472 53.544 L
146.386 53.629 L
145.3 53.719 L
144.214 53.812 L
143.128 53.88 L
142.042 53.942 L
140.956 54.007 L
139.87 54.075 L
138.784 54.149 L
137.698 54.222 L
136.612 54.301 L
135.526 54.383 L
134.44 54.47 L
133.354 54.564 L
132.268 54.66 L
131.182 54.764 L
130.096 54.872 L
129.01 54.99 L
127.924 55.112 L
126.838 55.247 L
125.752 55.388 L
124.666 55.541 L
123.58 55.707 L
122.494 55.888 L
121.408 56.083 L
120.322 56.298 L
119.236 56.532 L
118.15 56.789 L
117.064 57.074 L
115.978 57.391 L
114.892 57.744 L
113.806 58.142 L
112.72 58.585 L
111.634 59.054 L
110.548 59.283 L
109.462 59.526 L
108.376 59.791 L
107.29 60.082 L
106.204 60.407 L
105.118 60.771 L
104.032 61.189 L
102.946 61.68 L
101.86 62.271 L
100.774 63.005 L
99.688 63.954 L
98.602 65.247 L
97.516 67.137 L
96.43 70.206 L
95.344 76.083 L
cp
f
GR
GS
[0.6 0 0 0.6 0 0] CT
0.998 0.951 0.905 RC
N
94.258 130.1 M
93.172 218.345 L
92.637 467.051 L
119.506 467.051 L
120.942 467.051 L
122.37 467.051 L
123.869 467.051 L
125.443 467.051 L
127.046 467.051 L
130.65 467.051 L
132.444 467.051 L
134.393 467.051 L
138.368 467.051 L
140.619 467.051 L
147.324 467.051 L
149.862 467.051 L
151.403 467.051 L
151.816 464.712 L
152.902 459.883 L
153.988 454.018 L
155.074 447.096 L
156.16 440.247 L
157.246 434.85 L
158.332 428.516 L
159.418 423.754 L
160.504 417.245 L
161.59 412.238 L
162.676 407.143 L
163.762 401.574 L
164.848 396.793 L
165.934 392.192 L
167.02 386.874 L
168.106 382.822 L
169.192 377.394 L
170.278 372.579 L
171.364 367.535 L
172.45 363.276 L
173.536 358.859 L
174.622 353.939 L
175.708 349.856 L
176.794 345.834 L
177.88 341.77 L
178.966 339.127 L
180.052 333.157 L
181.138 329.203 L
182.224 326.088 L
183.31 323.21 L
184.396 318.062 L
185.482 314.529 L
186.568 310.615 L
187.654 307.161 L
188.74 303.504 L
189.826 300.708 L
190.912 296.531 L
191.998 293.407 L
193.084 290.163 L
194.17 286.675 L
195.256 283.365 L
196.342 280.004 L
197.428 277.138 L
198.514 274.014 L
199.6 272.938 L
200.686 270.269 L
201.772 265.353 L
202.858 263.494 L
203.944 261.955 L
205.03 260.953 L
206.116 260.018 L
207.202 259.174 L
208.288 258.312 L
209.374 257.651 L
210.46 256.971 L
211.546 256.392 L
212.632 255.852 L
213.718 255.369 L
214.804 254.906 L
215.89 254.485 L
216.976 254.053 L
218.062 253.731 L
219.148 253.361 L
220.234 252.96 L
221.32 252.616 L
222.406 252.285 L
223.492 251.944 L
224.578 251.608 L
225.664 251.308 L
226.75 250.981 L
227.836 250.707 L
228.922 250.453 L
230.008 250.215 L
231.094 249.939 L
232.18 249.699 L
233.266 249.473 L
234.352 249.235 L
235.438 249.018 L
236.524 248.775 L
237.61 248.572 L
238.696 248.352 L
239.782 248.162 L
240.868 247.95 L
241.954 247.742 L
243.04 247.552 L
244.126 247.343 L
245.212 247.12 L
246.298 246.917 L
247.384 246.716 L
248.47 246.519 L
249.556 246.332 L
250.642 246.154 L
251.728 245.965 L
252.814 245.79 L
253.9 245.629 L
254.986 245.454 L
256.072 245.293 L
257.158 245.129 L
258.244 244.977 L
259.33 244.813 L
260.416 244.646 L
261.502 244.48 L
262.588 244.33 L
263.674 244.189 L
264.76 244.042 L
265.846 243.895 L
266.932 243.745 L
268.018 243.613 L
269.104 243.474 L
270.19 243.33 L
271.276 243.192 L
272.362 243.056 L
273.448 242.941 L
274.534 242.794 L
275.62 242.667 L
276.706 242.537 L
277.792 242.415 L
278.878 242.282 L
279.964 242.161 L
281.05 242.028 L
282.136 241.907 L
283.222 241.785 L
284.308 241.672 L
285.394 241.562 L
286.48 241.432 L
287.566 241.308 L
288.652 241.187 L
289.738 241.071 L
290.824 240.961 L
291.91 240.853 L
292.996 240.741 L
294.082 240.633 L
295.168 240.52 L
296.254 240.419 L
297.34 240.308 L
298.426 240.207 L
299.512 240.102 L
300.598 239.998 L
301.684 239.89 L
302.77 239.775 L
303.856 239.679 L
304.942 239.571 L
306.028 239.473 L
307.114 239.374 L
308.2 239.275 L
309.286 239.173 L
310.372 239.077 L
311.458 238.981 L
312.544 238.888 L
313.63 238.792 L
314.716 238.696 L
315.802 238.603 L
316.888 238.509 L
317.974 238.416 L
319.06 238.337 L
320.146 238.241 L
321.232 238.148 L
322.318 238.063 L
323.404 237.973 L
324.49 237.877 L
325.576 237.778 L
326.662 237.685 L
327.748 237.592 L
328.834 237.501 L
329.92 237.414 L
331.006 237.332 L
332.092 237.25 L
333.178 237.16 L
334.264 237.078 L
335.35 237.004 L
336.436 236.919 L
337.522 236.838 L
338.608 236.753 L
339.694 236.665 L
340.78 236.583 L
341.866 236.504 L
342.952 236.422 L
344.038 236.346 L
345.124 236.27 L
346.21 236.185 L
347.296 236.098 L
348.382 236.016 L
349.468 235.94 L
350.554 235.863 L
351.64 235.779 L
352.726 235.702 L
353.812 235.629 L
354.898 235.555 L
355.984 235.482 L
357.07 235.406 L
358.156 235.33 L
359.242 235.256 L
360.328 235.183 L
361.414 235.112 L
362.5 235.05 L
363.586 234.979 L
364.672 234.914 L
365.758 234.849 L
366.844 234.782 L
367.93 234.711 L
369.016 234.64 L
370.102 234.57 L
371.188 234.494 L
372.274 234.426 L
373.36 234.358 L
374.446 234.287 L
375.532 234.22 L
376.618 234.149 L
377.704 234.087 L
378.79 234.016 L
379.876 233.951 L
380.962 233.886 L
382.048 233.819 L
383.134 233.751 L
384.22 233.68 L
385.306 233.615 L
386.392 233.548 L
387.478 233.483 L
388.564 233.412 L
389.65 233.35 L
390.736 233.285 L
391.822 233.226 L
392.908 233.158 L
393.994 233.093 L
395.08 233.025 L
396.166 232.963 L
397.252 232.898 L
398.338 232.836 L
399.424 232.774 L
400.51 232.712 L
401.596 232.647 L
402.682 232.582 L
403.768 232.52 L
404.854 232.455 L
405.94 232.392 L
407.026 232.325 L
408.112 232.263 L
409.198 232.198 L
410.284 232.138 L
411.37 232.079 L
412.456 232.02 L
413.542 231.96 L
414.628 231.904 L
415.714 231.842 L
416.8 231.782 L
417.886 231.72 L
418.972 231.667 L
420.058 231.61 L
421.144 231.551 L
422.23 231.494 L
423.316 231.441 L
424.402 231.384 L
425.488 231.325 L
426.574 231.266 L
427.66 231.209 L
428.746 231.153 L
429.832 231.096 L
430.918 231.043 L
432.004 230.989 L
433.09 230.932 L
434.176 230.879 L
435.262 230.828 L
436.348 230.774 L
437.434 230.721 L
438.52 230.667 L
439.606 230.608 L
440.692 230.557 L
441.778 230.506 L
442.864 230.452 L
443.95 230.407 L
445.036 230.351 L
446.122 230.3 L
447.208 230.246 L
448.294 230.198 L
449.38 230.153 L
450.466 230.099 L
451.552 230.051 L
452.638 229.995 L
453.724 229.944 L
454.81 229.896 L
455.896 229.839 L
456.982 229.791 L
458.068 229.741 L
459.154 229.693 L
460.24 229.645 L
461.326 229.597 L
462.412 229.546 L
463.498 229.492 L
464.584 229.436 L
465.67 229.388 L
466.756 229.34 L
467.842 229.292 L
468.928 229.238 L
470.014 229.184 L
471.1 229.133 L
472.186 229.091 L
473.272 229.043 L
474.358 228.995 L
475.444 228.947 L
476.53 228.896 L
477.616 228.848 L
478.702 228.797 L
479.788 228.752 L
480.874 228.704 L
481.96 228.659 L
483.046 228.614 L
484.132 228.569 L
485.218 228.521 L
486.304 228.473 L
487.39 228.427 L
488.476 228.379 L
489.562 228.329 L
490.648 228.281 L
491.734 228.235 L
492.82 228.187 L
493.906 228.145 L
494.992 228.103 L
496.078 228.06 L
497.164 228.015 L
498.25 227.973 L
499.336 227.928 L
500.422 227.885 L
501.508 227.837 L
502.594 227.789 L
503.68 227.741 L
504.766 227.702 L
505.852 227.659 L
506.938 227.617 L
508.024 227.572 L
509.11 227.529 L
510.196 227.481 L
511.282 227.436 L
512.368 227.391 L
513.454 227.346 L
514.54 227.306 L
515.626 227.261 L
516.712 227.21 L
517.798 227.165 L
518.884 227.117 L
519.97 227.072 L
521.056 227.029 L
522.142 226.99 L
523.228 226.945 L
524.314 226.902 L
525.4 226.86 L
526.486 226.823 L
527.572 226.778 L
528.658 226.733 L
529.744 226.691 L
530.83 226.648 L
531.916 226.603 L
533.002 226.561 L
534.088 226.521 L
535.174 226.476 L
536.26 226.434 L
537.346 226.394 L
538.432 226.352 L
539.518 226.312 L
540.604 226.273 L
541.69 226.233 L
542.776 226.191 L
543.862 226.146 L
544.948 226.106 L
546.034 226.066 L
547.12 226.027 L
548.206 225.985 L
549.292 225.942 L
550.378 225.903 L
551.464 225.863 L
552.55 225.826 L
553.636 225.79 L
554.722 225.747 L
555.808 225.708 L
556.894 225.671 L
557.98 225.632 L
559.066 225.589 L
560.152 225.547 L
561.238 225.504 L
562.324 225.468 L
563.41 225.428 L
564.496 225.389 L
565.582 225.349 L
566.668 225.31 L
567.754 225.273 L
568.84 225.236 L
569.926 225.199 L
571.012 225.163 L
572.098 225.123 L
573.184 225.084 L
574.27 225.044 L
575.356 225.007 L
576.442 224.968 L
577.528 224.931 L
578.614 224.892 L
579.7 224.852 L
580.786 224.815 L
581.872 224.779 L
582.958 224.739 L
584.044 224.702 L
585.13 224.666 L
586.216 224.629 L
587.302 224.592 L
588.388 224.553 L
589.474 224.516 L
590.56 224.476 L
591.646 224.44 L
592.732 224.406 L
593.818 224.369 L
594.904 224.33 L
595.99 224.293 L
597.076 224.256 L
598.162 224.217 L
599.248 224.183 L
600.334 224.149 L
601.42 224.112 L
602.506 224.078 L
603.592 224.044 L
604.678 224.008 L
605.764 223.974 L
606.85 223.937 L
607.936 223.9 L
609.022 223.864 L
610.108 223.827 L
611.194 223.793 L
612.28 223.759 L
613.366 223.725 L
614.452 223.689 L
615.538 223.652 L
616.624 223.615 L
617.71 223.578 L
618.796 223.544 L
619.882 223.513 L
620.968 223.48 L
622.054 223.443 L
623.14 223.409 L
624.226 223.378 L
625.312 223.344 L
626.398 223.307 L
627.484 223.276 L
628.57 223.242 L
629.656 223.211 L
630.742 223.18 L
631.828 223.146 L
632.914 223.11 L
634 223.079 L
634.065 223.076 L
634.065 77.313 L
634.065 68.077 L
634 68.077 L
632.914 68.077 L
631.828 68.077 L
630.742 68.077 L
629.656 68.077 L
628.57 68.077 L
627.484 68.077 L
626.398 68.077 L
625.312 68.077 L
624.226 68.077 L
623.14 68.08 L
622.054 68.08 L
620.968 68.08 L
619.882 68.08 L
618.796 68.08 L
617.71 68.08 L
616.624 68.08 L
615.538 68.08 L
614.452 68.08 L
613.366 68.08 L
612.28 68.08 L
611.194 68.08 L
610.108 68.08 L
609.022 68.08 L
607.936 68.08 L
606.85 68.08 L
605.764 68.08 L
604.678 68.08 L
603.592 68.08 L
602.506 68.08 L
601.42 68.08 L
600.334 68.08 L
599.248 68.08 L
598.162 68.08 L
597.076 68.083 L
595.99 68.083 L
594.904 68.083 L
593.818 68.083 L
592.732 68.086 L
591.646 68.086 L
590.56 68.086 L
589.474 68.086 L
588.388 68.086 L
587.302 68.086 L
586.216 68.088 L
585.13 68.088 L
584.044 68.091 L
582.958 68.091 L
581.872 68.091 L
580.786 68.091 L
579.7 68.091 L
578.614 68.091 L
577.528 68.091 L
576.442 68.091 L
575.356 68.094 L
574.27 68.094 L
573.184 68.094 L
572.098 68.094 L
571.012 68.091 L
569.926 68.094 L
568.84 68.094 L
567.754 68.094 L
566.668 68.091 L
565.582 68.094 L
564.496 68.094 L
563.41 68.097 L
562.324 68.094 L
561.238 68.097 L
560.152 68.097 L
559.066 68.094 L
557.98 68.097 L
556.894 68.1 L
555.808 68.1 L
554.722 68.102 L
553.636 68.102 L
552.55 68.105 L
551.464 68.105 L
550.378 68.105 L
549.292 68.105 L
548.206 68.105 L
547.12 68.105 L
546.034 68.105 L
544.948 68.105 L
543.862 68.108 L
542.776 68.105 L
541.69 68.111 L
540.604 68.111 L
539.518 68.111 L
538.432 68.108 L
537.346 68.108 L
536.26 68.108 L
535.174 68.108 L
534.088 68.108 L
533.002 68.105 L
531.916 68.105 L
530.83 68.108 L
529.744 68.108 L
528.658 68.108 L
527.572 68.108 L
526.486 68.108 L
525.4 68.108 L
524.314 68.108 L
523.228 68.111 L
522.142 68.111 L
521.056 68.108 L
519.97 68.111 L
518.884 68.111 L
517.798 68.114 L
516.712 68.114 L
515.626 68.114 L
514.54 68.117 L
513.454 68.117 L
512.368 68.117 L
511.282 68.119 L
510.196 68.122 L
509.11 68.122 L
508.024 68.125 L
506.938 68.125 L
505.852 68.125 L
504.766 68.128 L
503.68 68.128 L
502.594 68.128 L
501.508 68.131 L
500.422 68.134 L
499.336 68.136 L
498.25 68.136 L
497.164 68.134 L
496.078 68.131 L
494.992 68.131 L
493.906 68.128 L
492.82 68.128 L
491.734 68.128 L
490.648 68.125 L
489.562 68.125 L
488.476 68.128 L
487.39 68.131 L
486.304 68.131 L
485.218 68.128 L
484.132 68.128 L
483.046 68.128 L
481.96 68.128 L
480.874 68.128 L
479.788 68.131 L
478.702 68.131 L
477.616 68.131 L
476.53 68.134 L
475.444 68.136 L
474.358 68.134 L
473.272 68.134 L
472.186 68.131 L
471.1 68.128 L
470.014 68.131 L
468.928 68.131 L
467.842 68.131 L
466.756 68.134 L
465.67 68.134 L
464.584 68.136 L
463.498 68.134 L
462.412 68.134 L
461.326 68.136 L
460.24 68.139 L
459.154 68.139 L
458.068 68.139 L
456.982 68.139 L
455.896 68.142 L
454.81 68.142 L
453.724 68.142 L
452.638 68.142 L
451.552 68.145 L
450.466 68.148 L
449.38 68.148 L
448.294 68.145 L
447.208 68.145 L
446.122 68.145 L
445.036 68.145 L
443.95 68.142 L
442.864 68.145 L
441.778 68.142 L
440.692 68.145 L
439.606 68.148 L
438.52 68.145 L
437.434 68.148 L
436.348 68.148 L
435.262 68.148 L
434.176 68.15 L
433.09 68.15 L
432.004 68.15 L
430.918 68.15 L
429.832 68.15 L
428.746 68.15 L
427.66 68.15 L
426.574 68.15 L
425.488 68.15 L
424.402 68.15 L
423.316 68.153 L
422.23 68.153 L
421.144 68.153 L
420.058 68.153 L
418.972 68.15 L
417.886 68.153 L
416.8 68.153 L
415.714 68.153 L
414.628 68.153 L
413.542 68.153 L
412.456 68.156 L
411.37 68.159 L
410.284 68.159 L
409.198 68.162 L
408.112 68.165 L
407.026 68.167 L
405.94 68.17 L
404.854 68.167 L
403.768 68.167 L
402.682 68.167 L
401.596 68.17 L
400.51 68.173 L
399.424 68.17 L
398.338 68.173 L
397.252 68.176 L
396.166 68.176 L
395.08 68.173 L
393.994 68.173 L
392.908 68.173 L
391.822 68.173 L
390.736 68.182 L
389.65 68.179 L
388.564 68.182 L
387.478 68.184 L
386.392 68.187 L
385.306 68.187 L
384.22 68.19 L
383.134 68.193 L
382.048 68.196 L
380.962 68.196 L
379.876 68.193 L
378.79 68.199 L
377.704 68.193 L
376.618 68.193 L
375.532 68.19 L
374.446 68.193 L
373.36 68.193 L
372.274 68.19 L
371.188 68.193 L
370.102 68.19 L
369.016 68.193 L
367.93 68.196 L
366.844 68.193 L
365.758 68.199 L
364.672 68.199 L
363.586 68.207 L
362.5 68.207 L
361.414 68.204 L
360.328 68.204 L
359.242 68.201 L
358.156 68.201 L
357.07 68.204 L
355.984 68.207 L
354.898 68.21 L
353.812 68.221 L
352.726 68.221 L
351.64 68.224 L
350.554 68.221 L
349.468 68.227 L
348.382 68.235 L
347.296 68.238 L
346.21 68.23 L
345.124 68.235 L
344.038 68.238 L
342.952 68.227 L
341.866 68.23 L
340.78 68.23 L
339.694 68.227 L
338.608 68.227 L
337.522 68.224 L
336.436 68.23 L
335.35 68.227 L
334.264 68.23 L
333.178 68.227 L
332.092 68.232 L
331.006 68.227 L
329.92 68.23 L
328.834 68.224 L
327.748 68.221 L
326.662 68.221 L
325.576 68.218 L
324.49 68.218 L
323.404 68.218 L
322.318 68.221 L
321.232 68.224 L
320.146 68.224 L
319.06 68.221 L
317.974 68.221 L
316.888 68.227 L
315.802 68.235 L
314.716 68.238 L
313.63 68.238 L
312.544 68.235 L
311.458 68.235 L
310.372 68.23 L
309.286 68.227 L
308.2 68.23 L
307.114 68.232 L
306.028 68.227 L
304.942 68.23 L
303.856 68.235 L
302.77 68.232 L
301.684 68.232 L
300.598 68.238 L
299.512 68.244 L
298.426 68.247 L
297.34 68.247 L
296.254 68.252 L
295.168 68.247 L
294.082 68.247 L
292.996 68.247 L
291.91 68.241 L
290.824 68.247 L
289.738 68.244 L
288.652 68.249 L
287.566 68.249 L
286.48 68.258 L
285.394 68.261 L
284.308 68.258 L
283.222 68.261 L
282.136 68.252 L
281.05 68.269 L
279.964 68.275 L
278.878 68.278 L
277.792 68.266 L
276.706 68.258 L
275.62 68.249 L
274.534 68.258 L
273.448 68.261 L
272.362 68.272 L
271.276 68.278 L
270.19 68.28 L
269.104 68.292 L
268.018 68.3 L
266.932 68.292 L
265.846 68.286 L
264.76 68.292 L
263.674 68.297 L
262.588 68.3 L
261.502 68.311 L
260.416 68.311 L
259.33 68.323 L
258.244 68.331 L
257.158 68.323 L
256.072 68.311 L
254.986 68.311 L
253.9 68.3 L
252.814 68.306 L
251.728 68.303 L
250.642 68.289 L
249.556 68.283 L
248.47 68.286 L
247.384 68.289 L
246.298 68.28 L
245.212 68.292 L
244.126 68.3 L
243.04 68.314 L
241.954 68.328 L
240.868 68.323 L
239.782 68.331 L
238.696 68.359 L
237.61 68.359 L
236.524 68.379 L
235.438 68.351 L
234.352 68.343 L
233.266 68.343 L
232.18 68.368 L
231.094 68.388 L
230.008 68.385 L
228.922 68.402 L
227.836 68.41 L
226.75 68.407 L
225.664 68.424 L
224.578 68.441 L
223.492 68.498 L
222.406 68.56 L
221.32 68.537 L
220.234 68.577 L
219.148 68.588 L
218.062 68.625 L
216.976 68.614 L
215.89 68.707 L
214.804 68.766 L
213.718 68.636 L
212.632 68.597 L
211.546 68.693 L
210.46 68.696 L
209.374 68.69 L
208.288 68.755 L
207.202 68.831 L
206.116 68.947 L
205.03 68.978 L
203.944 69.28 L
202.858 69.729 L
201.772 70.449 L
200.686 69.419 L
199.6 69.348 L
198.514 68.989 L
197.428 69.893 L
196.342 69.639 L
195.256 69.402 L
194.17 69.314 L
193.084 70.531 L
191.998 70.161 L
190.912 70.715 L
189.826 70.785 L
188.74 69.687 L
187.654 69.718 L
186.568 69.469 L
185.482 69.204 L
184.396 69.365 L
183.31 69.492 L
182.224 69.955 L
181.138 69.709 L
180.052 70.35 L
178.966 69.811 L
177.88 69.777 L
176.794 69.599 L
175.708 70.672 L
174.622 71.048 L
173.536 71.356 L
172.45 70.325 L
171.364 70.783 L
170.278 70.226 L
169.192 70.045 L
168.106 70.35 L
167.02 70.314 L
165.934 71.774 L
164.848 70.427 L
163.762 70.35 L
162.676 70.226 L
161.59 71.186 L
160.504 70.975 L
159.418 70.783 L
158.332 70.884 L
157.246 70.915 L
156.16 71.09 L
155.074 71.35 L
153.988 71.582 L
152.902 71.353 L
151.816 71.254 L
150.73 71.319 L
149.644 71.469 L
148.558 71.587 L
147.472 71.458 L
146.386 71.607 L
145.3 71.811 L
144.214 72.084 L
143.128 72.404 L
142.042 71.85 L
140.956 72.203 L
139.87 72.192 L
138.784 72.822 L
137.698 72.285 L
136.612 72.466 L
135.526 72.878 L
134.44 72.946 L
133.354 73.319 L
132.268 73.833 L
131.182 73.626 L
130.096 73.711 L
129.01 74.208 L
127.924 74.104 L
126.838 73.841 L
125.752 73.847 L
124.666 74.437 L
123.58 74.33 L
122.494 74.307 L
121.408 74.172 L
120.322 74.793 L
119.236 74.762 L
118.15 74.911 L
117.064 74.762 L
115.978 74.878 L
114.892 75.197 L
113.806 75.855 L
112.72 75.135 L
111.634 75.264 L
110.548 75.567 L
109.462 75.417 L
108.376 75.397 L
107.29 75.581 L
106.204 76.007 L
105.118 76.465 L
104.032 77.188 L
102.946 77.781 L
101.86 77.154 L
100.774 78.814 L
99.688 78.857 L
98.602 80.243 L
97.516 82.155 L
96.43 86.742 L
95.344 99.589 L
cp
f
GR
GS
[0.6 0 0 0.6 0 0] CT
0.992 0.753 0.525 RC
1 LJ
3.333 LW
N
98.402 467.051 M
98.602 449.375 L
99.688 392.141 L
100.774 354.631 L
101.86 328.387 L
102.946 309.208 L
104.032 294.348 L
105.118 282.662 L
106.204 272.673 L
107.29 264.432 L
108.376 257.389 L
109.462 251.167 L
110.548 245.595 L
111.634 240.311 L
112.72 235.541 L
113.806 231.297 L
114.892 226.984 L
115.978 223.025 L
117.064 219.088 L
118.15 215.484 L
119.236 211.87 L
120.322 208.563 L
121.408 205.408 L
122.494 202.064 L
123.58 199.028 L
124.666 196.131 L
125.752 193.177 L
126.838 190.545 L
127.924 187.842 L
129.01 185.343 L
130.096 182.821 L
131.182 180.542 L
132.268 178.088 L
133.354 175.772 L
134.44 173.719 L
135.526 171.473 L
136.612 169.307 L
137.698 167.274 L
138.784 165.269 L
139.87 163.334 L
140.956 161.439 L
142.042 159.533 L
143.128 157.802 L
144.214 156.122 L
145.3 154.382 L
146.386 152.761 L
147.472 151.21 L
148.558 149.609 L
149.644 148.093 L
150.73 146.57 L
151.816 145.06 L
152.902 143.633 L
153.988 142.385 L
155.074 140.993 L
156.16 139.553 L
157.246 138.276 L
158.332 137.011 L
159.418 135.765 L
160.504 134.658 L
161.59 133.382 L
162.676 132.119 L
163.762 131.145 L
164.848 129.911 L
165.934 128.858 L
167.02 127.804 L
168.106 126.878 L
169.192 125.839 L
170.278 124.78 L
171.364 123.738 L
172.45 122.791 L
173.536 122.009 L
174.622 121.094 L
175.708 120.219 L
176.794 119.154 L
177.88 118.471 L
178.966 117.547 L
180.052 116.745 L
181.138 115.853 L
182.224 115.036 L
183.31 114.297 L
184.396 113.559 L
185.482 112.74 L
186.568 112.065 L
187.654 111.354 L
188.74 110.608 L
189.826 110.009 L
190.912 109.309 L
191.998 108.575 L
193.084 107.9 L
194.17 107.18 L
195.256 106.646 L
196.342 105.917 L
197.428 105.398 L
198.514 104.754 L
199.6 104.265 L
200.686 103.712 L
201.772 103.068 L
202.858 102.475 L
203.944 102.054 L
205.03 101.721 L
206.116 101.461 L
207.202 101.263 L
208.288 101.08 L
209.374 100.922 L
210.46 100.783 L
211.546 100.653 L
212.632 100.532 L
213.718 100.422 L
214.804 100.32 L
215.89 100.235 L
216.976 100.145 L
218.062 100.057 L
219.148 99.975 L
220.234 99.899 L
221.32 99.826 L
222.406 99.758 L
223.492 99.687 L
224.578 99.62 L
225.664 99.563 L
226.75 99.507 L
227.836 99.45 L
228.922 99.394 L
230.008 99.334 L
231.094 99.284 L
232.18 99.233 L
233.266 99.185 L
234.352 99.134 L
235.438 99.083 L
236.524 99.038 L
237.61 98.99 L
238.696 98.947 L
239.782 98.905 L
240.868 98.86 L
241.954 98.82 L
243.04 98.778 L
244.126 98.741 L
245.212 98.699 L
246.298 98.659 L
247.384 98.623 L
248.47 98.586 L
249.556 98.546 L
250.642 98.51 L
251.728 98.476 L
252.814 98.442 L
253.9 98.411 L
254.986 98.377 L
256.072 98.346 L
257.158 98.315 L
258.244 98.287 L
259.33 98.256 L
260.416 98.224 L
261.502 98.193 L
262.588 98.165 L
263.674 98.137 L
264.76 98.109 L
265.846 98.08 L
266.932 98.052 L
268.018 98.027 L
269.104 98.001 L
270.19 97.973 L
271.276 97.945 L
272.362 97.917 L
273.448 97.888 L
274.534 97.863 L
275.62 97.835 L
276.706 97.812 L
277.792 97.79 L
278.878 97.764 L
279.964 97.739 L
281.05 97.716 L
282.136 97.688 L
283.222 97.665 L
284.308 97.643 L
285.394 97.62 L
286.48 97.598 L
287.566 97.575 L
288.652 97.555 L
289.738 97.53 L
290.824 97.507 L
291.91 97.487 L
292.996 97.465 L
294.082 97.442 L
295.168 97.422 L
296.254 97.4 L
297.34 97.38 L
298.426 97.36 L
299.512 97.338 L
300.598 97.318 L
301.684 97.298 L
302.77 97.278 L
303.856 97.256 L
304.942 97.236 L
306.028 97.216 L
307.114 97.197 L
308.2 97.177 L
309.286 97.157 L
310.372 97.137 L
311.458 97.117 L
312.544 97.098 L
313.63 97.081 L
314.716 97.061 L
315.802 97.044 L
316.888 97.024 L
317.974 97.007 L
319.06 96.988 L
320.146 96.971 L
321.232 96.954 L
322.318 96.937 L
323.404 96.92 L
324.49 96.903 L
325.576 96.886 L
326.662 96.869 L
327.748 96.852 L
328.834 96.835 L
329.92 96.815 L
331.006 96.798 L
332.092 96.784 L
333.178 96.767 L
334.264 96.75 L
335.35 96.733 L
336.436 96.716 L
337.522 96.702 L
338.608 96.688 L
339.694 96.671 L
340.78 96.654 L
341.866 96.64 L
342.952 96.623 L
344.038 96.606 L
345.124 96.592 L
346.21 96.578 L
347.296 96.561 L
348.382 96.547 L
349.468 96.53 L
350.554 96.516 L
351.64 96.502 L
352.726 96.488 L
353.812 96.471 L
354.898 96.457 L
355.984 96.442 L
357.07 96.428 L
358.156 96.414 L
359.242 96.397 L
360.328 96.383 L
361.414 96.372 L
362.5 96.358 L
363.586 96.344 L
364.672 96.329 L
365.758 96.315 L
366.844 96.301 L
367.93 96.287 L
369.016 96.273 L
370.102 96.259 L
371.188 96.245 L
372.274 96.233 L
373.36 96.219 L
374.446 96.208 L
375.532 96.194 L
376.618 96.183 L
377.704 96.169 L
378.79 96.157 L
379.876 96.143 L
380.962 96.132 L
382.048 96.118 L
383.134 96.106 L
384.22 96.092 L
385.306 96.081 L
386.392 96.067 L
387.478 96.056 L
388.564 96.041 L
389.65 96.03 L
390.736 96.016 L
391.822 96.005 L
392.908 95.993 L
393.994 95.979 L
395.08 95.968 L
396.166 95.957 L
397.252 95.945 L
398.338 95.931 L
399.424 95.92 L
400.51 95.909 L
401.596 95.897 L
402.682 95.883 L
403.768 95.872 L
404.854 95.861 L
405.94 95.849 L
407.026 95.838 L
408.112 95.827 L
409.198 95.816 L
410.284 95.804 L
411.37 95.793 L
412.456 95.779 L
413.542 95.768 L
414.628 95.756 L
415.714 95.745 L
416.8 95.734 L
417.886 95.722 L
418.972 95.711 L
420.058 95.7 L
421.144 95.691 L
422.23 95.68 L
423.316 95.669 L
424.402 95.657 L
425.488 95.646 L
426.574 95.635 L
427.66 95.626 L
428.746 95.615 L
429.832 95.604 L
430.918 95.592 L
432.004 95.584 L
433.09 95.573 L
434.176 95.561 L
435.262 95.55 L
436.348 95.542 L
437.434 95.53 L
438.52 95.519 L
439.606 95.511 L
440.692 95.499 L
441.778 95.488 L
442.864 95.479 L
443.95 95.468 L
445.036 95.46 L
446.122 95.448 L
447.208 95.44 L
448.294 95.429 L
449.38 95.417 L
450.466 95.409 L
451.552 95.398 L
452.638 95.389 L
453.724 95.378 L
454.81 95.366 L
455.896 95.358 L
456.982 95.347 L
458.068 95.338 L
459.154 95.33 L
460.24 95.318 L
461.326 95.31 L
462.412 95.299 L
463.498 95.29 L
464.584 95.279 L
465.67 95.27 L
466.756 95.262 L
467.842 95.251 L
468.928 95.242 L
470.014 95.234 L
471.1 95.225 L
472.186 95.214 L
473.272 95.205 L
474.358 95.194 L
475.444 95.186 L
476.53 95.177 L
477.616 95.169 L
478.702 95.16 L
479.788 95.152 L
480.874 95.141 L
481.96 95.132 L
483.046 95.124 L
484.132 95.115 L
485.218 95.107 L
486.304 95.098 L
487.39 95.09 L
488.476 95.078 L
489.562 95.07 L
490.648 95.061 L
491.734 95.053 L
492.82 95.045 L
493.906 95.036 L
494.992 95.025 L
496.078 95.016 L
497.164 95.008 L
498.25 94.999 L
499.336 94.991 L
500.422 94.982 L
501.508 94.974 L
502.594 94.965 L
503.68 94.957 L
504.766 94.949 L
505.852 94.94 L
506.938 94.932 L
508.024 94.923 L
509.11 94.915 L
510.196 94.906 L
511.282 94.898 L
512.368 94.889 L
513.454 94.881 L
514.54 94.872 L
515.626 94.864 L
516.712 94.855 L
517.798 94.847 L
518.884 94.838 L
519.97 94.833 L
521.056 94.824 L
522.142 94.816 L
523.228 94.807 L
524.314 94.799 L
525.4 94.79 L
526.486 94.782 L
527.572 94.776 L
528.658 94.768 L
529.744 94.759 L
530.83 94.751 L
531.916 94.742 L
533.002 94.734 L
534.088 94.728 L
535.174 94.72 L
536.26 94.711 L
537.346 94.703 L
538.432 94.697 L
539.518 94.689 L
540.604 94.68 L
541.69 94.675 L
542.776 94.666 L
543.862 94.658 L
544.948 94.652 L
546.034 94.644 L
547.12 94.635 L
548.206 94.629 L
549.292 94.621 L
550.378 94.612 L
551.464 94.607 L
552.55 94.598 L
553.636 94.59 L
554.722 94.584 L
555.808 94.576 L
556.894 94.567 L
557.98 94.562 L
559.066 94.553 L
560.152 94.545 L
561.238 94.539 L
562.324 94.531 L
563.41 94.525 L
564.496 94.516 L
565.582 94.511 L
566.668 94.502 L
567.754 94.494 L
568.84 94.488 L
569.926 94.48 L
571.012 94.474 L
572.098 94.466 L
573.184 94.457 L
574.27 94.451 L
575.356 94.443 L
576.442 94.437 L
577.528 94.429 L
578.614 94.423 L
579.7 94.415 L
580.786 94.409 L
581.872 94.401 L
582.958 94.392 L
584.044 94.387 L
585.13 94.378 L
586.216 94.372 L
587.302 94.367 L
588.388 94.358 L
589.474 94.35 L
590.56 94.344 L
591.646 94.336 L
592.732 94.33 L
593.818 94.324 L
594.904 94.316 L
595.99 94.31 L
597.076 94.305 L
598.162 94.296 L
599.248 94.29 L
600.334 94.282 L
601.42 94.276 L
602.506 94.268 L
603.592 94.262 L
604.678 94.257 L
605.764 94.248 L
606.85 94.242 L
607.936 94.234 L
609.022 94.228 L
610.108 94.223 L
611.194 94.214 L
612.28 94.209 L
613.366 94.203 L
614.452 94.197 L
615.538 94.189 L
616.624 94.183 L
617.71 94.178 L
618.796 94.169 L
619.882 94.163 L
620.968 94.158 L
622.054 94.149 L
623.14 94.144 L
624.226 94.138 L
625.312 94.13 L
626.398 94.124 L
627.484 94.118 L
628.57 94.113 L
629.656 94.104 L
630.742 94.098 L
631.828 94.093 L
632.914 94.084 L
634 94.079 L
634.065 94.078 L
S
GR
GS
[0.6 0 0 0.6 0 0] CT
0.996 0.89 0.788 RC
1 LJ
0.833 LW
N
92.637 467.051 M
93.172 218.345 L
94.258 130.1 L
95.344 99.589 L
96.43 86.742 L
97.516 82.155 L
98.602 80.243 L
99.688 78.857 L
100.774 78.814 L
101.86 77.154 L
102.946 77.781 L
104.032 77.188 L
105.118 76.465 L
106.204 76.007 L
107.29 75.581 L
108.376 75.397 L
109.462 75.417 L
110.548 75.567 L
111.634 75.264 L
112.72 75.135 L
113.806 75.855 L
114.892 75.197 L
115.978 74.878 L
117.064 74.762 L
118.15 74.911 L
119.236 74.762 L
120.322 74.793 L
121.408 74.172 L
122.494 74.307 L
123.58 74.33 L
124.666 74.437 L
125.752 73.847 L
126.838 73.841 L
127.924 74.104 L
129.01 74.208 L
130.096 73.711 L
131.182 73.626 L
132.268 73.833 L
133.354 73.319 L
134.44 72.946 L
135.526 72.878 L
136.612 72.466 L
137.698 72.285 L
138.784 72.822 L
139.87 72.192 L
140.956 72.203 L
142.042 71.85 L
143.128 72.404 L
144.214 72.084 L
145.3 71.811 L
146.386 71.607 L
147.472 71.458 L
148.558 71.587 L
149.644 71.469 L
150.73 71.319 L
151.816 71.254 L
152.902 71.353 L
153.988 71.582 L
155.074 71.35 L
156.16 71.09 L
157.246 70.915 L
158.332 70.884 L
159.418 70.783 L
160.504 70.975 L
161.59 71.186 L
162.676 70.226 L
163.762 70.35 L
164.848 70.427 L
165.934 71.774 L
167.02 70.314 L
168.106 70.35 L
169.192 70.045 L
170.278 70.226 L
171.364 70.783 L
172.45 70.325 L
173.536 71.356 L
174.622 71.048 L
175.708 70.672 L
176.794 69.599 L
177.88 69.777 L
178.966 69.811 L
180.052 70.35 L
181.138 69.709 L
182.224 69.955 L
183.31 69.492 L
184.396 69.365 L
185.482 69.204 L
186.568 69.469 L
187.654 69.718 L
188.74 69.687 L
189.826 70.785 L
190.912 70.715 L
191.998 70.161 L
193.084 70.531 L
194.17 69.314 L
195.256 69.402 L
196.342 69.639 L
197.428 69.893 L
198.514 68.989 L
199.6 69.348 L
200.686 69.419 L
201.772 70.449 L
202.858 69.729 L
203.944 69.28 L
205.03 68.978 L
206.116 68.947 L
207.202 68.831 L
208.288 68.755 L
209.374 68.69 L
210.46 68.696 L
211.546 68.693 L
212.632 68.597 L
213.718 68.636 L
214.804 68.766 L
215.89 68.707 L
216.976 68.614 L
218.062 68.625 L
219.148 68.588 L
220.234 68.577 L
221.32 68.537 L
222.406 68.56 L
223.492 68.498 L
224.578 68.441 L
225.664 68.424 L
226.75 68.407 L
227.836 68.41 L
228.922 68.402 L
230.008 68.385 L
231.094 68.388 L
232.18 68.368 L
233.266 68.343 L
234.352 68.343 L
235.438 68.351 L
236.524 68.379 L
237.61 68.359 L
238.696 68.359 L
239.782 68.331 L
240.868 68.323 L
241.954 68.328 L
243.04 68.314 L
244.126 68.3 L
245.212 68.292 L
246.298 68.28 L
247.384 68.289 L
248.47 68.286 L
249.556 68.283 L
250.642 68.289 L
251.728 68.303 L
252.814 68.306 L
253.9 68.3 L
254.986 68.311 L
256.072 68.311 L
257.158 68.323 L
258.244 68.331 L
259.33 68.323 L
260.416 68.311 L
261.502 68.311 L
262.588 68.3 L
263.674 68.297 L
264.76 68.292 L
265.846 68.286 L
266.932 68.292 L
268.018 68.3 L
269.104 68.292 L
270.19 68.28 L
271.276 68.278 L
272.362 68.272 L
273.448 68.261 L
274.534 68.258 L
275.62 68.249 L
276.706 68.258 L
277.792 68.266 L
278.878 68.278 L
279.964 68.275 L
281.05 68.269 L
282.136 68.252 L
283.222 68.261 L
284.308 68.258 L
285.394 68.261 L
286.48 68.258 L
287.566 68.249 L
288.652 68.249 L
289.738 68.244 L
290.824 68.247 L
291.91 68.241 L
292.996 68.247 L
294.082 68.247 L
295.168 68.247 L
296.254 68.252 L
297.34 68.247 L
298.426 68.247 L
299.512 68.244 L
300.598 68.238 L
301.684 68.232 L
302.77 68.232 L
303.856 68.235 L
304.942 68.23 L
306.028 68.227 L
307.114 68.232 L
308.2 68.23 L
309.286 68.227 L
310.372 68.23 L
311.458 68.235 L
312.544 68.235 L
313.63 68.238 L
314.716 68.238 L
315.802 68.235 L
316.888 68.227 L
317.974 68.221 L
319.06 68.221 L
320.146 68.224 L
321.232 68.224 L
322.318 68.221 L
323.404 68.218 L
324.49 68.218 L
325.576 68.218 L
326.662 68.221 L
327.748 68.221 L
328.834 68.224 L
329.92 68.23 L
331.006 68.227 L
332.092 68.232 L
333.178 68.227 L
334.264 68.23 L
335.35 68.227 L
336.436 68.23 L
337.522 68.224 L
338.608 68.227 L
339.694 68.227 L
340.78 68.23 L
341.866 68.23 L
342.952 68.227 L
344.038 68.238 L
345.124 68.235 L
346.21 68.23 L
347.296 68.238 L
348.382 68.235 L
349.468 68.227 L
350.554 68.221 L
351.64 68.224 L
352.726 68.221 L
353.812 68.221 L
354.898 68.21 L
355.984 68.207 L
357.07 68.204 L
358.156 68.201 L
359.242 68.201 L
360.328 68.204 L
361.414 68.204 L
362.5 68.207 L
363.586 68.207 L
364.672 68.199 L
365.758 68.199 L
366.844 68.193 L
367.93 68.196 L
369.016 68.193 L
370.102 68.19 L
371.188 68.193 L
372.274 68.19 L
373.36 68.193 L
374.446 68.193 L
375.532 68.19 L
376.618 68.193 L
377.704 68.193 L
378.79 68.199 L
379.876 68.193 L
380.962 68.196 L
382.048 68.196 L
383.134 68.193 L
384.22 68.19 L
385.306 68.187 L
386.392 68.187 L
387.478 68.184 L
388.564 68.182 L
389.65 68.179 L
390.736 68.182 L
391.822 68.173 L
392.908 68.173 L
393.994 68.173 L
395.08 68.173 L
396.166 68.176 L
397.252 68.176 L
398.338 68.173 L
399.424 68.17 L
400.51 68.173 L
401.596 68.17 L
402.682 68.167 L
403.768 68.167 L
404.854 68.167 L
405.94 68.17 L
407.026 68.167 L
408.112 68.165 L
409.198 68.162 L
410.284 68.159 L
411.37 68.159 L
412.456 68.156 L
413.542 68.153 L
414.628 68.153 L
415.714 68.153 L
416.8 68.153 L
417.886 68.153 L
418.972 68.15 L
420.058 68.153 L
421.144 68.153 L
422.23 68.153 L
423.316 68.153 L
424.402 68.15 L
425.488 68.15 L
426.574 68.15 L
427.66 68.15 L
428.746 68.15 L
429.832 68.15 L
430.918 68.15 L
432.004 68.15 L
433.09 68.15 L
434.176 68.15 L
435.262 68.148 L
436.348 68.148 L
437.434 68.148 L
438.52 68.145 L
439.606 68.148 L
440.692 68.145 L
441.778 68.142 L
442.864 68.145 L
443.95 68.142 L
445.036 68.145 L
446.122 68.145 L
447.208 68.145 L
448.294 68.145 L
449.38 68.148 L
450.466 68.148 L
451.552 68.145 L
452.638 68.142 L
453.724 68.142 L
454.81 68.142 L
455.896 68.142 L
456.982 68.139 L
458.068 68.139 L
459.154 68.139 L
460.24 68.139 L
461.326 68.136 L
462.412 68.134 L
463.498 68.134 L
464.584 68.136 L
465.67 68.134 L
466.756 68.134 L
467.842 68.131 L
468.928 68.131 L
470.014 68.131 L
471.1 68.128 L
472.186 68.131 L
473.272 68.134 L
474.358 68.134 L
475.444 68.136 L
476.53 68.134 L
477.616 68.131 L
478.702 68.131 L
479.788 68.131 L
480.874 68.128 L
481.96 68.128 L
483.046 68.128 L
484.132 68.128 L
485.218 68.128 L
486.304 68.131 L
487.39 68.131 L
488.476 68.128 L
489.562 68.125 L
490.648 68.125 L
491.734 68.128 L
492.82 68.128 L
493.906 68.128 L
494.992 68.131 L
496.078 68.131 L
497.164 68.134 L
498.25 68.136 L
499.336 68.136 L
500.422 68.134 L
501.508 68.131 L
502.594 68.128 L
503.68 68.128 L
504.766 68.128 L
505.852 68.125 L
506.938 68.125 L
508.024 68.125 L
509.11 68.122 L
510.196 68.122 L
511.282 68.119 L
512.368 68.117 L
513.454 68.117 L
514.54 68.117 L
515.626 68.114 L
516.712 68.114 L
517.798 68.114 L
518.884 68.111 L
519.97 68.111 L
521.056 68.108 L
522.142 68.111 L
523.228 68.111 L
524.314 68.108 L
525.4 68.108 L
526.486 68.108 L
527.572 68.108 L
528.658 68.108 L
529.744 68.108 L
530.83 68.108 L
531.916 68.105 L
533.002 68.105 L
534.088 68.108 L
535.174 68.108 L
536.26 68.108 L
537.346 68.108 L
538.432 68.108 L
539.518 68.111 L
540.604 68.111 L
541.69 68.111 L
542.776 68.105 L
543.862 68.108 L
544.948 68.105 L
546.034 68.105 L
547.12 68.105 L
548.206 68.105 L
549.292 68.105 L
550.378 68.105 L
551.464 68.105 L
552.55 68.105 L
553.636 68.102 L
554.722 68.102 L
555.808 68.1 L
556.894 68.1 L
557.98 68.097 L
559.066 68.094 L
560.152 68.097 L
561.238 68.097 L
562.324 68.094 L
563.41 68.097 L
564.496 68.094 L
565.582 68.094 L
566.668 68.091 L
567.754 68.094 L
568.84 68.094 L
569.926 68.094 L
571.012 68.091 L
572.098 68.094 L
573.184 68.094 L
574.27 68.094 L
575.356 68.094 L
576.442 68.091 L
577.528 68.091 L
578.614 68.091 L
579.7 68.091 L
580.786 68.091 L
581.872 68.091 L
582.958 68.091 L
584.044 68.091 L
585.13 68.088 L
586.216 68.088 L
587.302 68.086 L
588.388 68.086 L
589.474 68.086 L
590.56 68.086 L
591.646 68.086 L
592.732 68.086 L
593.818 68.083 L
594.904 68.083 L
595.99 68.083 L
597.076 68.083 L
598.162 68.08 L
599.248 68.08 L
600.334 68.08 L
601.42 68.08 L
602.506 68.08 L
603.592 68.08 L
604.678 68.08 L
605.764 68.08 L
606.85 68.08 L
607.936 68.08 L
609.022 68.08 L
610.108 68.08 L
611.194 68.08 L
612.28 68.08 L
613.366 68.08 L
614.452 68.08 L
615.538 68.08 L
616.624 68.08 L
617.71 68.08 L
618.796 68.08 L
619.882 68.08 L
620.968 68.08 L
622.054 68.08 L
623.14 68.08 L
624.226 68.077 L
625.312 68.077 L
626.398 68.077 L
627.484 68.077 L
628.57 68.077 L
629.656 68.077 L
630.742 68.077 L
631.828 68.077 L
632.914 68.077 L
634 68.077 L
634.065 68.077 L
S
GR
GS
[0.6 0 0 0.6 0 0] CT
0.996 0.89 0.788 RC
1 LJ
0.833 LW
N
151.403 467.051 M
151.816 464.712 L
152.902 459.883 L
153.988 454.018 L
155.074 447.096 L
156.16 440.247 L
157.246 434.85 L
158.332 428.516 L
159.418 423.754 L
160.504 417.245 L
161.59 412.238 L
162.676 407.143 L
163.762 401.574 L
164.848 396.793 L
165.934 392.192 L
167.02 386.874 L
168.106 382.822 L
169.192 377.394 L
170.278 372.579 L
171.364 367.535 L
172.45 363.276 L
173.536 358.859 L
174.622 353.939 L
175.708 349.856 L
176.794 345.834 L
177.88 341.77 L
178.966 339.127 L
180.052 333.157 L
181.138 329.203 L
182.224 326.088 L
183.31 323.21 L
184.396 318.062 L
185.482 314.529 L
186.568 310.615 L
187.654 307.161 L
188.74 303.504 L
189.826 300.708 L
190.912 296.531 L
191.998 293.407 L
193.084 290.163 L
194.17 286.675 L
195.256 283.365 L
196.342 280.004 L
197.428 277.138 L
198.514 274.014 L
199.6 272.938 L
200.686 270.269 L
201.772 265.353 L
202.858 263.494 L
203.944 261.955 L
205.03 260.953 L
206.116 260.018 L
207.202 259.174 L
208.288 258.312 L
209.374 257.651 L
210.46 256.971 L
211.546 256.392 L
212.632 255.852 L
213.718 255.369 L
214.804 254.906 L
215.89 254.485 L
216.976 254.053 L
218.062 253.731 L
219.148 253.361 L
220.234 252.96 L
221.32 252.616 L
222.406 252.285 L
223.492 251.944 L
224.578 251.608 L
225.664 251.308 L
226.75 250.981 L
227.836 250.707 L
228.922 250.453 L
230.008 250.215 L
231.094 249.939 L
232.18 249.699 L
233.266 249.473 L
234.352 249.235 L
235.438 249.018 L
236.524 248.775 L
237.61 248.572 L
238.696 248.352 L
239.782 248.162 L
240.868 247.95 L
241.954 247.742 L
243.04 247.552 L
244.126 247.343 L
245.212 247.12 L
246.298 246.917 L
247.384 246.716 L
248.47 246.519 L
249.556 246.332 L
250.642 246.154 L
251.728 245.965 L
252.814 245.79 L
253.9 245.629 L
254.986 245.454 L
256.072 245.293 L
257.158 245.129 L
258.244 244.977 L
259.33 244.813 L
260.416 244.646 L
261.502 244.48 L
262.588 244.33 L
263.674 244.189 L
264.76 244.042 L
265.846 243.895 L
266.932 243.745 L
268.018 243.613 L
269.104 243.474 L
270.19 243.33 L
271.276 243.192 L
272.362 243.056 L
273.448 242.941 L
274.534 242.794 L
275.62 242.667 L
276.706 242.537 L
277.792 242.415 L
278.878 242.282 L
279.964 242.161 L
281.05 242.028 L
282.136 241.907 L
283.222 241.785 L
284.308 241.672 L
285.394 241.562 L
286.48 241.432 L
287.566 241.308 L
288.652 241.187 L
289.738 241.071 L
290.824 240.961 L
291.91 240.853 L
292.996 240.741 L
294.082 240.633 L
295.168 240.52 L
296.254 240.419 L
297.34 240.308 L
298.426 240.207 L
299.512 240.102 L
300.598 239.998 L
301.684 239.89 L
302.77 239.775 L
303.856 239.679 L
304.942 239.571 L
306.028 239.473 L
307.114 239.374 L
308.2 239.275 L
309.286 239.173 L
310.372 239.077 L
311.458 238.981 L
312.544 238.888 L
313.63 238.792 L
314.716 238.696 L
315.802 238.603 L
316.888 238.509 L
317.974 238.416 L
319.06 238.337 L
320.146 238.241 L
321.232 238.148 L
322.318 238.063 L
323.404 237.973 L
324.49 237.877 L
325.576 237.778 L
326.662 237.685 L
327.748 237.592 L
328.834 237.501 L
329.92 237.414 L
331.006 237.332 L
332.092 237.25 L
333.178 237.16 L
334.264 237.078 L
335.35 237.004 L
336.436 236.919 L
337.522 236.838 L
338.608 236.753 L
339.694 236.665 L
340.78 236.583 L
341.866 236.504 L
342.952 236.422 L
344.038 236.346 L
345.124 236.27 L
346.21 236.185 L
347.296 236.098 L
348.382 236.016 L
349.468 235.94 L
350.554 235.863 L
351.64 235.779 L
352.726 235.702 L
353.812 235.629 L
354.898 235.555 L
355.984 235.482 L
357.07 235.406 L
358.156 235.33 L
359.242 235.256 L
360.328 235.183 L
361.414 235.112 L
362.5 235.05 L
363.586 234.979 L
364.672 234.914 L
365.758 234.849 L
366.844 234.782 L
367.93 234.711 L
369.016 234.64 L
370.102 234.57 L
371.188 234.494 L
372.274 234.426 L
373.36 234.358 L
374.446 234.287 L
375.532 234.22 L
376.618 234.149 L
377.704 234.087 L
378.79 234.016 L
379.876 233.951 L
380.962 233.886 L
382.048 233.819 L
383.134 233.751 L
384.22 233.68 L
385.306 233.615 L
386.392 233.548 L
387.478 233.483 L
388.564 233.412 L
389.65 233.35 L
390.736 233.285 L
391.822 233.226 L
392.908 233.158 L
393.994 233.093 L
395.08 233.025 L
396.166 232.963 L
397.252 232.898 L
398.338 232.836 L
399.424 232.774 L
400.51 232.712 L
401.596 232.647 L
402.682 232.582 L
403.768 232.52 L
404.854 232.455 L
405.94 232.392 L
407.026 232.325 L
408.112 232.263 L
409.198 232.198 L
410.284 232.138 L
411.37 232.079 L
412.456 232.02 L
413.542 231.96 L
414.628 231.904 L
415.714 231.842 L
416.8 231.782 L
417.886 231.72 L
418.972 231.667 L
420.058 231.61 L
421.144 231.551 L
422.23 231.494 L
423.316 231.441 L
424.402 231.384 L
425.488 231.325 L
426.574 231.266 L
427.66 231.209 L
428.746 231.153 L
429.832 231.096 L
430.918 231.043 L
432.004 230.989 L
433.09 230.932 L
434.176 230.879 L
435.262 230.828 L
436.348 230.774 L
437.434 230.721 L
438.52 230.667 L
439.606 230.608 L
440.692 230.557 L
441.778 230.506 L
442.864 230.452 L
443.95 230.407 L
445.036 230.351 L
446.122 230.3 L
447.208 230.246 L
448.294 230.198 L
449.38 230.153 L
450.466 230.099 L
451.552 230.051 L
452.638 229.995 L
453.724 229.944 L
454.81 229.896 L
455.896 229.839 L
456.982 229.791 L
458.068 229.741 L
459.154 229.693 L
460.24 229.645 L
461.326 229.597 L
462.412 229.546 L
463.498 229.492 L
464.584 229.436 L
465.67 229.388 L
466.756 229.34 L
467.842 229.292 L
468.928 229.238 L
470.014 229.184 L
471.1 229.133 L
472.186 229.091 L
473.272 229.043 L
474.358 228.995 L
475.444 228.947 L
476.53 228.896 L
477.616 228.848 L
478.702 228.797 L
479.788 228.752 L
480.874 228.704 L
481.96 228.659 L
483.046 228.614 L
484.132 228.569 L
485.218 228.521 L
486.304 228.473 L
487.39 228.427 L
488.476 228.379 L
489.562 228.329 L
490.648 228.281 L
491.734 228.235 L
492.82 228.187 L
493.906 228.145 L
494.992 228.103 L
496.078 228.06 L
497.164 228.015 L
498.25 227.973 L
499.336 227.928 L
500.422 227.885 L
501.508 227.837 L
502.594 227.789 L
503.68 227.741 L
504.766 227.702 L
505.852 227.659 L
506.938 227.617 L
508.024 227.572 L
509.11 227.529 L
510.196 227.481 L
511.282 227.436 L
512.368 227.391 L
513.454 227.346 L
514.54 227.306 L
515.626 227.261 L
516.712 227.21 L
517.798 227.165 L
518.884 227.117 L
519.97 227.072 L
521.056 227.029 L
522.142 226.99 L
523.228 226.945 L
524.314 226.902 L
525.4 226.86 L
526.486 226.823 L
527.572 226.778 L
528.658 226.733 L
529.744 226.691 L
530.83 226.648 L
531.916 226.603 L
533.002 226.561 L
534.088 226.521 L
535.174 226.476 L
536.26 226.434 L
537.346 226.394 L
538.432 226.352 L
539.518 226.312 L
540.604 226.273 L
541.69 226.233 L
542.776 226.191 L
543.862 226.146 L
544.948 226.106 L
546.034 226.066 L
547.12 226.027 L
548.206 225.985 L
549.292 225.942 L
550.378 225.903 L
551.464 225.863 L
552.55 225.826 L
553.636 225.79 L
554.722 225.747 L
555.808 225.708 L
556.894 225.671 L
557.98 225.632 L
559.066 225.589 L
560.152 225.547 L
561.238 225.504 L
562.324 225.468 L
563.41 225.428 L
564.496 225.389 L
565.582 225.349 L
566.668 225.31 L
567.754 225.273 L
568.84 225.236 L
569.926 225.199 L
571.012 225.163 L
572.098 225.123 L
573.184 225.084 L
574.27 225.044 L
575.356 225.007 L
576.442 224.968 L
577.528 224.931 L
578.614 224.892 L
579.7 224.852 L
580.786 224.815 L
581.872 224.779 L
582.958 224.739 L
584.044 224.702 L
585.13 224.666 L
586.216 224.629 L
587.302 224.592 L
588.388 224.553 L
589.474 224.516 L
590.56 224.476 L
591.646 224.44 L
592.732 224.406 L
593.818 224.369 L
594.904 224.33 L
595.99 224.293 L
597.076 224.256 L
598.162 224.217 L
599.248 224.183 L
600.334 224.149 L
601.42 224.112 L
602.506 224.078 L
603.592 224.044 L
604.678 224.008 L
605.764 223.974 L
606.85 223.937 L
607.936 223.9 L
609.022 223.864 L
610.108 223.827 L
611.194 223.793 L
612.28 223.759 L
613.366 223.725 L
614.452 223.689 L
615.538 223.652 L
616.624 223.615 L
617.71 223.578 L
618.796 223.544 L
619.882 223.513 L
620.968 223.48 L
622.054 223.443 L
623.14 223.409 L
624.226 223.378 L
625.312 223.344 L
626.398 223.307 L
627.484 223.276 L
628.57 223.242 L
629.656 223.211 L
630.742 223.18 L
631.828 223.146 L
632.914 223.11 L
634 223.079 L
634.065 223.076 L
S
GR
GS
[0.6 0 0 0.6 0 0] CT
0.941 0.008 0.498 RC
[3 3] 0 setdash
2 LJ
3.333 LW
N
96.827 467.051 M
97.516 415.646 L
98.602 362.813 L
99.688 326.836 L
100.774 301.507 L
101.86 283.085 L
102.946 269.225 L
104.032 258.419 L
105.118 249.699 L
106.204 242.418 L
107.29 236.157 L
108.376 230.627 L
109.462 225.637 L
110.548 221.054 L
111.634 216.789 L
112.72 212.776 L
113.806 208.972 L
114.892 205.343 L
115.978 201.867 L
117.064 198.523 L
118.15 195.301 L
119.236 192.188 L
120.322 189.178 L
121.408 186.261 L
122.494 183.434 L
123.58 180.689 L
124.666 178.025 L
125.752 175.439 L
126.838 172.922 L
127.924 170.474 L
129.01 168.093 L
130.096 165.774 L
131.182 163.518 L
132.268 161.321 L
133.354 159.177 L
134.44 157.09 L
135.526 155.054 L
136.612 153.072 L
137.698 151.134 L
138.784 149.245 L
139.87 147.404 L
140.956 145.605 L
142.042 143.848 L
143.128 142.131 L
144.214 140.456 L
145.3 138.818 L
146.386 137.22 L
147.472 135.655 L
148.558 134.127 L
149.644 132.633 L
150.73 131.173 L
151.816 129.744 L
152.902 128.344 L
153.988 126.977 L
155.074 125.638 L
156.16 124.328 L
157.246 123.046 L
158.332 121.789 L
159.418 120.56 L
160.504 119.354 L
161.59 118.177 L
162.676 117.022 L
163.762 115.889 L
164.848 114.779 L
165.934 113.692 L
167.02 112.627 L
168.106 111.583 L
169.192 110.56 L
170.278 109.555 L
171.364 108.572 L
172.45 107.606 L
173.536 106.66 L
174.622 105.731 L
175.708 104.819 L
176.794 103.926 L
177.88 103.048 L
178.966 102.187 L
180.052 101.342 L
181.138 100.515 L
182.224 99.701 L
183.31 98.902 L
184.396 98.117 L
185.482 97.346 L
186.568 96.592 L
187.654 95.849 L
188.74 95.121 L
189.826 94.403 L
190.912 93.7 L
191.998 93.011 L
193.084 92.333 L
194.17 91.667 L
195.256 91.012 L
196.342 90.368 L
197.428 89.735 L
198.514 89.114 L
199.6 88.504 L
200.686 87.905 L
201.772 87.315 L
202.858 86.736 L
203.944 86.166 L
205.03 85.606 L
206.116 85.058 L
207.202 84.516 L
208.288 83.985 L
209.374 83.463 L
210.46 82.949 L
211.546 82.443 L
212.632 81.946 L
213.718 81.458 L
214.804 80.978 L
215.89 80.506 L
216.976 80.04 L
218.062 79.583 L
219.148 79.133 L
220.234 78.693 L
221.32 78.258 L
222.406 77.829 L
223.492 77.411 L
224.578 76.996 L
225.664 76.589 L
226.75 76.188 L
227.836 75.795 L
228.922 75.408 L
230.008 75.027 L
231.094 74.652 L
232.18 74.282 L
233.266 73.92 L
234.352 73.562 L
235.438 73.211 L
236.524 72.864 L
237.61 72.525 L
238.696 72.189 L
239.782 71.861 L
240.868 71.537 L
241.954 71.217 L
243.04 70.904 L
244.126 70.593 L
245.212 70.291 L
246.298 69.992 L
247.384 69.695 L
248.47 69.407 L
249.556 69.119 L
250.642 68.84 L
251.728 68.563 L
252.814 68.292 L
253.9 68.023 L
254.986 67.758 L
256.072 67.498 L
257.158 67.244 L
258.244 66.993 L
259.33 66.744 L
260.416 66.501 L
261.502 66.261 L
262.588 66.024 L
263.674 65.792 L
264.76 65.564 L
265.846 65.338 L
266.932 65.115 L
268.018 64.897 L
269.104 64.68 L
270.19 64.468 L
271.276 64.259 L
272.362 64.056 L
273.448 63.852 L
274.534 63.652 L
275.62 63.457 L
276.706 63.262 L
277.792 63.073 L
278.878 62.886 L
279.964 62.7 L
281.05 62.519 L
282.136 62.338 L
283.222 62.163 L
284.308 61.991 L
285.394 61.819 L
286.48 61.649 L
287.566 61.486 L
288.652 61.322 L
289.738 61.161 L
290.824 61.003 L
291.91 60.845 L
292.996 60.692 L
294.082 60.54 L
295.168 60.393 L
296.254 60.246 L
297.34 60.099 L
298.426 59.958 L
299.512 59.817 L
300.598 59.678 L
301.684 59.543 L
302.77 59.407 L
303.856 59.274 L
304.942 59.144 L
306.028 59.017 L
307.114 58.89 L
308.2 58.766 L
309.286 58.642 L
310.372 58.523 L
311.458 58.402 L
312.544 58.286 L
313.63 58.17 L
314.716 58.054 L
315.802 57.944 L
316.888 57.834 L
317.974 57.724 L
319.06 57.617 L
320.146 57.509 L
321.232 57.405 L
322.318 57.303 L
323.404 57.201 L
324.49 57.103 L
325.576 57.004 L
326.662 56.908 L
327.748 56.812 L
328.834 56.716 L
329.92 56.625 L
331.006 56.532 L
332.092 56.442 L
333.178 56.354 L
334.264 56.267 L
335.35 56.179 L
336.436 56.094 L
337.522 56.012 L
338.608 55.928 L
339.694 55.846 L
340.78 55.767 L
341.866 55.688 L
342.952 55.609 L
344.038 55.532 L
345.124 55.456 L
346.21 55.383 L
347.296 55.309 L
348.382 55.236 L
349.468 55.165 L
350.554 55.095 L
351.64 55.024 L
352.726 54.956 L
353.812 54.888 L
354.898 54.821 L
355.984 54.756 L
357.07 54.691 L
358.156 54.626 L
359.242 54.564 L
360.328 54.502 L
361.414 54.439 L
362.5 54.38 L
363.586 54.321 L
364.672 54.262 L
365.758 54.205 L
366.844 54.146 L
367.93 54.089 L
369.016 54.036 L
370.102 53.979 L
371.188 53.925 L
372.274 53.872 L
373.36 53.821 L
374.446 53.767 L
375.532 53.716 L
376.618 53.666 L
377.704 53.618 L
378.79 53.567 L
379.876 53.519 L
380.962 53.471 L
382.048 53.426 L
383.134 53.378 L
384.22 53.332 L
385.306 53.287 L
386.392 53.242 L
387.478 53.2 L
388.564 53.154 L
389.65 53.112 L
390.736 53.07 L
391.822 53.027 L
392.908 52.988 L
393.994 52.948 L
395.08 52.906 L
396.166 52.866 L
397.252 52.83 L
398.338 52.79 L
399.424 52.753 L
400.51 52.714 L
401.596 52.677 L
402.682 52.64 L
403.768 52.604 L
404.854 52.57 L
405.94 52.533 L
407.026 52.499 L
408.112 52.465 L
409.198 52.431 L
410.284 52.398 L
411.37 52.367 L
412.456 52.333 L
413.542 52.302 L
414.628 52.271 L
415.714 52.239 L
416.8 52.208 L
417.886 52.177 L
418.972 52.146 L
420.058 52.118 L
421.144 52.09 L
422.23 52.059 L
423.316 52.03 L
424.402 52.002 L
425.488 51.974 L
426.574 51.949 L
427.66 51.92 L
428.746 51.895 L
429.832 51.867 L
430.918 51.841 L
432.004 51.816 L
433.09 51.79 L
434.176 51.765 L
435.262 51.74 L
436.348 51.717 L
437.434 51.692 L
438.52 51.666 L
439.606 51.644 L
440.692 51.621 L
441.778 51.598 L
442.864 51.576 L
443.95 51.553 L
445.036 51.531 L
446.122 51.508 L
447.208 51.485 L
448.294 51.466 L
449.38 51.443 L
450.466 51.423 L
451.552 51.401 L
452.638 51.381 L
453.724 51.361 L
454.81 51.341 L
455.896 51.322 L
456.982 51.302 L
458.068 51.282 L
459.154 51.265 L
460.24 51.245 L
461.326 51.226 L
462.412 51.209 L
463.498 51.189 L
464.584 51.172 L
465.67 51.155 L
466.756 51.135 L
467.842 51.118 L
468.928 51.101 L
470.014 51.084 L
471.1 51.067 L
472.186 51.05 L
473.272 51.036 L
474.358 51.019 L
475.444 51.002 L
476.53 50.988 L
477.616 50.971 L
478.702 50.957 L
479.788 50.94 L
480.874 50.926 L
481.96 50.909 L
483.046 50.895 L
484.132 50.881 L
485.218 50.867 L
486.304 50.853 L
487.39 50.839 L
488.476 50.825 L
489.562 50.81 L
490.648 50.796 L
491.734 50.782 L
492.82 50.768 L
493.906 50.757 L
494.992 50.743 L
496.078 50.729 L
497.164 50.717 L
498.25 50.703 L
499.336 50.692 L
500.422 50.678 L
501.508 50.666 L
502.594 50.655 L
503.68 50.641 L
504.766 50.63 L
505.852 50.618 L
506.938 50.607 L
508.024 50.596 L
509.11 50.582 L
510.196 50.57 L
511.282 50.559 L
512.368 50.548 L
513.454 50.539 L
514.54 50.528 L
515.626 50.517 L
516.712 50.505 L
517.798 50.494 L
518.884 50.486 L
519.97 50.474 L
521.056 50.463 L
522.142 50.455 L
523.228 50.443 L
524.314 50.432 L
525.4 50.424 L
526.486 50.412 L
527.572 50.404 L
528.658 50.392 L
529.744 50.384 L
530.83 50.376 L
531.916 50.364 L
533.002 50.356 L
534.088 50.347 L
535.174 50.339 L
536.26 50.328 L
537.346 50.319 L
538.432 50.311 L
539.518 50.302 L
540.604 50.294 L
541.69 50.285 L
542.776 50.277 L
543.862 50.268 L
544.948 50.26 L
546.034 50.251 L
547.12 50.243 L
548.206 50.234 L
549.292 50.226 L
550.378 50.217 L
551.464 50.209 L
552.55 50.2 L
553.636 50.195 L
554.722 50.186 L
555.808 50.178 L
556.894 50.169 L
557.98 50.164 L
559.066 50.155 L
560.152 50.147 L
561.238 50.141 L
562.324 50.133 L
563.41 50.124 L
564.496 50.119 L
565.582 50.11 L
566.668 50.104 L
567.754 50.096 L
568.84 50.09 L
569.926 50.082 L
571.012 50.076 L
572.098 50.071 L
573.184 50.062 L
574.27 50.056 L
575.356 50.048 L
576.442 50.042 L
577.528 50.037 L
578.614 50.028 L
579.7 50.023 L
580.786 50.017 L
581.872 50.008 L
582.958 50.003 L
584.044 49.997 L
585.13 49.991 L
586.216 49.986 L
587.302 49.977 L
588.388 49.972 L
589.474 49.966 L
590.56 49.96 L
591.646 49.955 L
592.732 49.949 L
593.818 49.943 L
594.904 49.935 L
595.99 49.929 L
597.076 49.924 L
598.162 49.918 L
599.248 49.912 L
600.334 49.907 L
601.42 49.901 L
602.506 49.895 L
603.592 49.89 L
604.678 49.884 L
605.764 49.878 L
606.85 49.873 L
607.936 49.87 L
609.022 49.864 L
610.108 49.859 L
611.194 49.853 L
612.28 49.847 L
613.366 49.842 L
614.452 49.836 L
615.538 49.83 L
616.624 49.828 L
617.71 49.822 L
618.796 49.816 L
619.882 49.811 L
620.968 49.805 L
622.054 49.802 L
623.14 49.797 L
624.226 49.791 L
625.312 49.785 L
626.398 49.782 L
627.484 49.777 L
628.57 49.771 L
629.656 49.768 L
630.742 49.763 L
631.828 49.757 L
632.914 49.754 L
634 49.749 L
634.065 49.748 L
S
GR
GS
[0.6 0 0 0.6 0 0] CT
0.973 0.553 0.773 RC
1 LJ
0.833 LW
N
92.536 467.051 M
93.172 105.288 L
94.258 84.881 L
95.344 76.083 L
96.43 70.206 L
97.516 67.137 L
98.602 65.247 L
99.688 63.954 L
100.774 63.005 L
101.86 62.271 L
102.946 61.68 L
104.032 61.189 L
105.118 60.771 L
106.204 60.407 L
107.29 60.082 L
108.376 59.791 L
109.462 59.526 L
110.548 59.283 L
111.634 59.054 L
112.72 58.585 L
113.806 58.142 L
114.892 57.744 L
115.978 57.391 L
117.064 57.074 L
118.15 56.789 L
119.236 56.532 L
120.322 56.298 L
121.408 56.083 L
122.494 55.888 L
123.58 55.707 L
124.666 55.541 L
125.752 55.388 L
126.838 55.247 L
127.924 55.112 L
129.01 54.99 L
130.096 54.872 L
131.182 54.764 L
132.268 54.66 L
133.354 54.564 L
134.44 54.47 L
135.526 54.383 L
136.612 54.301 L
137.698 54.222 L
138.784 54.149 L
139.87 54.075 L
140.956 54.007 L
142.042 53.942 L
143.128 53.88 L
144.214 53.812 L
145.3 53.719 L
146.386 53.629 L
147.472 53.544 L
148.558 53.459 L
149.644 53.38 L
150.73 53.301 L
151.816 53.225 L
152.902 53.152 L
153.988 53.084 L
155.074 53.016 L
156.16 52.951 L
157.246 52.889 L
158.332 52.83 L
159.418 52.773 L
160.504 52.72 L
161.59 52.666 L
162.676 52.615 L
163.762 52.567 L
164.848 52.519 L
165.934 52.474 L
167.02 52.431 L
168.106 52.389 L
169.192 52.347 L
170.278 52.307 L
171.364 52.265 L
172.45 52.225 L
173.536 52.189 L
174.622 52.152 L
175.708 52.115 L
176.794 52.078 L
177.88 52.045 L
178.966 52.011 L
180.052 51.98 L
181.138 51.949 L
182.224 51.917 L
183.31 51.886 L
184.396 51.855 L
185.482 51.827 L
186.568 51.799 L
187.654 51.771 L
188.74 51.745 L
189.826 51.72 L
190.912 51.692 L
191.998 51.666 L
193.084 51.644 L
194.17 51.618 L
195.256 51.596 L
196.342 51.573 L
197.428 51.548 L
198.514 51.528 L
199.6 51.505 L
200.686 51.483 L
201.772 51.463 L
202.858 51.44 L
203.944 51.42 L
205.03 51.401 L
206.116 51.381 L
207.202 51.361 L
208.288 51.341 L
209.374 51.324 L
210.46 51.305 L
211.546 51.288 L
212.632 51.271 L
213.718 51.251 L
214.804 51.234 L
215.89 51.217 L
216.976 51.2 L
218.062 51.183 L
219.148 51.169 L
220.234 51.152 L
221.32 51.135 L
222.406 51.121 L
223.492 51.104 L
224.578 51.09 L
225.664 51.076 L
226.75 51.059 L
227.836 51.045 L
228.922 51.031 L
230.008 51.017 L
231.094 51.002 L
232.18 50.988 L
233.266 50.974 L
234.352 50.96 L
235.438 50.949 L
236.524 50.935 L
237.61 50.921 L
238.696 50.909 L
239.782 50.895 L
240.868 50.884 L
241.954 50.87 L
243.04 50.858 L
244.126 50.844 L
245.212 50.833 L
246.298 50.822 L
247.384 50.81 L
248.47 50.799 L
249.556 50.785 L
250.642 50.774 L
251.728 50.762 L
252.814 50.751 L
253.9 50.74 L
254.986 50.729 L
256.072 50.72 L
257.158 50.709 L
258.244 50.697 L
259.33 50.686 L
260.416 50.675 L
261.502 50.666 L
262.588 50.655 L
263.674 50.644 L
264.76 50.635 L
265.846 50.624 L
266.932 50.616 L
268.018 50.604 L
269.104 50.596 L
270.19 50.585 L
271.276 50.576 L
272.362 50.565 L
273.448 50.556 L
274.534 50.548 L
275.62 50.537 L
276.706 50.528 L
277.792 50.52 L
278.878 50.511 L
279.964 50.503 L
281.05 50.491 L
282.136 50.483 L
283.222 50.474 L
284.308 50.466 L
285.394 50.457 L
286.48 50.449 L
287.566 50.44 L
288.652 50.432 L
289.738 50.424 L
290.824 50.415 L
291.91 50.407 L
292.996 50.398 L
294.082 50.39 L
295.168 50.381 L
296.254 50.373 L
297.34 50.367 L
298.426 50.359 L
299.512 50.35 L
300.598 50.342 L
301.684 50.336 L
302.77 50.328 L
303.856 50.319 L
304.942 50.311 L
306.028 50.305 L
307.114 50.296 L
308.2 50.288 L
309.286 50.282 L
310.372 50.274 L
311.458 50.268 L
312.544 50.26 L
313.63 50.251 L
314.716 50.246 L
315.802 50.237 L
316.888 50.231 L
317.974 50.223 L
319.06 50.217 L
320.146 50.212 L
321.232 50.203 L
322.318 50.198 L
323.404 50.189 L
324.49 50.183 L
325.576 50.178 L
326.662 50.169 L
327.748 50.164 L
328.834 50.158 L
329.92 50.15 L
331.006 50.144 L
332.092 50.138 L
333.178 50.13 L
334.264 50.124 L
335.35 50.119 L
336.436 50.113 L
337.522 50.104 L
338.608 50.099 L
339.694 50.093 L
340.78 50.087 L
341.866 50.082 L
342.952 50.076 L
344.038 50.068 L
345.124 50.062 L
346.21 50.056 L
347.296 50.051 L
348.382 50.045 L
349.468 50.039 L
350.554 50.034 L
351.64 50.028 L
352.726 50.02 L
353.812 50.014 L
354.898 50.008 L
355.984 50.003 L
357.07 49.997 L
358.156 49.991 L
359.242 49.986 L
360.328 49.983 L
361.414 49.977 L
362.5 49.972 L
363.586 49.966 L
364.672 49.96 L
365.758 49.955 L
366.844 49.949 L
367.93 49.943 L
369.016 49.938 L
370.102 49.932 L
371.188 49.926 L
372.274 49.924 L
373.36 49.918 L
374.446 49.912 L
375.532 49.907 L
376.618 49.901 L
377.704 49.895 L
378.79 49.893 L
379.876 49.887 L
380.962 49.881 L
382.048 49.876 L
383.134 49.873 L
384.22 49.867 L
385.306 49.862 L
386.392 49.856 L
387.478 49.853 L
388.564 49.847 L
389.65 49.842 L
390.736 49.839 L
391.822 49.833 L
392.908 49.828 L
393.994 49.822 L
395.08 49.819 L
396.166 49.814 L
397.252 49.808 L
398.338 49.805 L
399.424 49.799 L
400.51 49.797 L
401.596 49.791 L
402.682 49.785 L
403.768 49.782 L
404.854 49.777 L
405.94 49.774 L
407.026 49.768 L
408.112 49.763 L
409.198 49.76 L
410.284 49.754 L
411.37 49.751 L
412.456 49.746 L
413.542 49.743 L
414.628 49.737 L
415.714 49.732 L
416.8 49.729 L
417.886 49.723 L
418.972 49.72 L
420.058 49.715 L
421.144 49.712 L
422.23 49.706 L
423.316 49.703 L
424.402 49.698 L
425.488 49.695 L
426.574 49.692 L
427.66 49.686 L
428.746 49.684 L
429.832 49.678 L
430.918 49.675 L
432.004 49.669 L
433.09 49.667 L
434.176 49.661 L
435.262 49.658 L
436.348 49.655 L
437.434 49.65 L
438.52 49.647 L
439.606 49.641 L
440.692 49.638 L
441.778 49.636 L
442.864 49.63 L
443.95 49.627 L
445.036 49.624 L
446.122 49.619 L
447.208 49.616 L
448.294 49.61 L
449.38 49.607 L
450.466 49.605 L
451.552 49.599 L
452.638 49.596 L
453.724 49.593 L
454.81 49.588 L
455.896 49.585 L
456.982 49.582 L
458.068 49.579 L
459.154 49.573 L
460.24 49.571 L
461.326 49.568 L
462.412 49.562 L
463.498 49.559 L
464.584 49.557 L
465.67 49.554 L
466.756 49.548 L
467.842 49.545 L
468.928 49.542 L
470.014 49.537 L
471.1 49.534 L
472.186 49.531 L
473.272 49.528 L
474.358 49.523 L
475.444 49.52 L
476.53 49.517 L
477.616 49.514 L
478.702 49.511 L
479.788 49.506 L
480.874 49.503 L
481.96 49.5 L
483.046 49.497 L
484.132 49.494 L
485.218 49.489 L
486.304 49.486 L
487.39 49.483 L
488.476 49.48 L
489.562 49.477 L
490.648 49.472 L
491.734 49.469 L
492.82 49.466 L
493.906 49.463 L
494.992 49.461 L
496.078 49.458 L
497.164 49.455 L
498.25 49.449 L
499.336 49.446 L
500.422 49.444 L
501.508 49.441 L
502.594 49.438 L
503.68 49.435 L
504.766 49.432 L
505.852 49.427 L
506.938 49.424 L
508.024 49.421 L
509.11 49.418 L
510.196 49.415 L
511.282 49.413 L
512.368 49.41 L
513.454 49.407 L
514.54 49.404 L
515.626 49.401 L
516.712 49.396 L
517.798 49.393 L
518.884 49.39 L
519.97 49.387 L
521.056 49.384 L
522.142 49.381 L
523.228 49.379 L
524.314 49.376 L
525.4 49.373 L
526.486 49.37 L
527.572 49.367 L
528.658 49.364 L
529.744 49.362 L
530.83 49.359 L
531.916 49.356 L
533.002 49.353 L
534.088 49.35 L
535.174 49.348 L
536.26 49.345 L
537.346 49.342 L
538.432 49.339 L
539.518 49.333 L
540.604 49.331 L
541.69 49.328 L
542.776 49.325 L
543.862 49.322 L
544.948 49.319 L
546.034 49.316 L
547.12 49.314 L
548.206 49.311 L
549.292 49.308 L
550.378 49.308 L
551.464 49.305 L
552.55 49.302 L
553.636 49.3 L
554.722 49.297 L
555.808 49.294 L
556.894 49.291 L
557.98 49.288 L
559.066 49.285 L
560.152 49.283 L
561.238 49.28 L
562.324 49.277 L
563.41 49.274 L
564.496 49.271 L
565.582 49.268 L
566.668 49.266 L
567.754 49.263 L
568.84 49.26 L
569.926 49.257 L
571.012 49.254 L
572.098 49.252 L
573.184 49.249 L
574.27 49.249 L
575.356 49.246 L
576.442 49.243 L
577.528 49.24 L
578.614 49.237 L
579.7 49.235 L
580.786 49.232 L
581.872 49.229 L
582.958 49.226 L
584.044 49.223 L
585.13 49.22 L
586.216 49.22 L
587.302 49.218 L
588.388 49.215 L
589.474 49.212 L
590.56 49.209 L
591.646 49.206 L
592.732 49.204 L
593.818 49.201 L
594.904 49.198 L
595.99 49.198 L
597.076 49.195 L
598.162 49.192 L
599.248 49.189 L
600.334 49.187 L
601.42 49.184 L
602.506 49.181 L
603.592 49.178 L
604.678 49.178 L
605.764 49.175 L
606.85 49.172 L
607.936 49.17 L
609.022 49.167 L
610.108 49.164 L
611.194 49.161 L
612.28 49.161 L
613.366 49.158 L
614.452 49.156 L
615.538 49.153 L
616.624 49.15 L
617.71 49.147 L
618.796 49.147 L
619.882 49.144 L
620.968 49.141 L
622.054 49.139 L
623.14 49.136 L
624.226 49.133 L
625.312 49.133 L
626.398 49.13 L
627.484 49.127 L
628.57 49.124 L
629.656 49.122 L
630.742 49.122 L
631.828 49.119 L
632.914 49.116 L
634 49.113 L
634.065 49.113 L
S
GR
GS
[0.6 0 0 0.6 0 0] CT
0.973 0.553 0.773 RC
1 LJ
0.833 LW
N
155.264 467.051 M
156.16 462.51 L
157.246 457.087 L
158.332 451.741 L
159.418 446.474 L
160.504 441.281 L
161.59 436.161 L
162.676 431.111 L
163.762 426.132 L
164.848 421.224 L
165.934 416.381 L
167.02 411.605 L
168.106 406.894 L
169.192 402.249 L
170.278 397.665 L
171.364 393.141 L
172.45 388.679 L
173.536 384.276 L
174.622 379.93 L
175.708 375.643 L
176.794 371.412 L
177.88 367.235 L
178.966 363.115 L
180.052 359.045 L
181.138 355.03 L
182.224 351.067 L
183.31 347.156 L
184.396 343.293 L
185.482 339.48 L
186.568 335.718 L
187.654 332.002 L
188.74 328.333 L
189.826 324.713 L
190.912 321.137 L
191.998 317.607 L
193.084 314.122 L
194.17 310.68 L
195.256 307.282 L
196.342 303.927 L
197.428 300.617 L
198.514 297.344 L
199.6 294.116 L
200.686 290.928 L
201.772 287.779 L
202.858 284.67 L
203.944 281.6 L
205.03 278.567 L
206.116 275.576 L
207.202 272.619 L
208.288 269.699 L
209.374 266.818 L
210.46 263.972 L
211.546 261.162 L
212.632 258.388 L
213.718 255.646 L
214.804 252.941 L
215.89 250.269 L
216.976 247.631 L
218.062 245.028 L
219.148 242.455 L
220.234 239.916 L
221.32 237.408 L
222.406 234.931 L
223.492 232.486 L
224.578 230.071 L
225.664 227.687 L
226.75 225.335 L
227.836 223.011 L
228.922 220.715 L
230.008 218.45 L
231.094 216.213 L
232.18 214.005 L
233.266 211.824 L
234.352 209.672 L
235.438 207.546 L
236.524 205.448 L
237.61 203.375 L
238.696 201.33 L
239.782 199.311 L
240.868 197.317 L
241.954 195.349 L
243.04 193.406 L
244.126 191.485 L
245.212 189.593 L
246.298 187.723 L
247.384 185.876 L
248.47 184.055 L
249.556 182.256 L
250.642 180.48 L
251.728 178.729 L
252.814 176.997 L
253.9 175.289 L
254.986 173.603 L
256.072 171.939 L
257.158 170.299 L
258.244 168.678 L
259.33 167.076 L
260.416 165.498 L
261.502 163.936 L
262.588 162.4 L
263.674 160.88 L
264.76 159.381 L
265.846 157.901 L
266.932 156.441 L
268.018 154.998 L
269.104 153.577 L
270.19 152.174 L
271.276 150.787 L
272.362 149.42 L
273.448 148.07 L
274.534 146.737 L
275.62 145.424 L
276.706 144.128 L
277.792 142.845 L
278.878 141.583 L
279.964 140.338 L
281.05 139.106 L
282.136 137.892 L
283.222 136.695 L
284.308 135.511 L
285.394 134.345 L
286.48 133.195 L
287.566 132.057 L
288.652 130.939 L
289.738 129.832 L
290.824 128.742 L
291.91 127.663 L
292.996 126.601 L
294.082 125.553 L
295.168 124.52 L
296.254 123.497 L
297.34 122.492 L
298.426 121.498 L
299.512 120.518 L
300.598 119.549 L
301.684 118.595 L
302.77 117.654 L
303.856 116.725 L
304.942 115.81 L
306.028 114.907 L
307.114 114.014 L
308.2 113.133 L
309.286 112.266 L
310.372 111.407 L
311.458 110.563 L
312.544 109.73 L
313.63 108.908 L
314.716 108.095 L
315.802 107.296 L
316.888 106.508 L
317.974 105.728 L
319.06 104.96 L
320.146 104.2 L
321.232 103.452 L
322.318 102.715 L
323.404 101.989 L
324.49 101.269 L
325.576 100.563 L
326.662 99.862 L
327.748 99.176 L
328.834 98.496 L
329.92 97.826 L
331.006 97.163 L
332.092 96.51 L
333.178 95.869 L
334.264 95.234 L
335.35 94.607 L
336.436 93.991 L
337.522 93.381 L
338.608 92.78 L
339.694 92.187 L
340.78 91.602 L
341.866 91.026 L
342.952 90.458 L
344.038 89.896 L
345.124 89.345 L
346.21 88.798 L
347.296 88.261 L
348.382 87.73 L
349.468 87.208 L
350.554 86.691 L
351.64 86.18 L
352.726 85.68 L
353.812 85.183 L
354.898 84.694 L
355.984 84.214 L
357.07 83.737 L
358.156 83.268 L
359.242 82.808 L
360.328 82.35 L
361.414 81.901 L
362.5 81.458 L
363.586 81.02 L
364.672 80.588 L
365.758 80.164 L
366.844 79.743 L
367.93 79.331 L
369.016 78.922 L
370.102 78.521 L
371.188 78.122 L
372.274 77.733 L
373.36 77.346 L
374.446 76.965 L
375.532 76.589 L
376.618 76.219 L
377.704 75.855 L
378.79 75.493 L
379.876 75.137 L
380.962 74.787 L
382.048 74.443 L
383.134 74.101 L
384.22 73.765 L
385.306 73.434 L
386.392 73.107 L
387.478 72.785 L
388.564 72.469 L
389.65 72.155 L
390.736 71.844 L
391.822 71.539 L
392.908 71.24 L
393.994 70.944 L
395.08 70.653 L
396.166 70.362 L
397.252 70.079 L
398.338 69.797 L
399.424 69.523 L
400.51 69.249 L
401.596 68.981 L
402.682 68.715 L
403.768 68.453 L
404.854 68.196 L
405.94 67.942 L
407.026 67.69 L
408.112 67.444 L
409.198 67.199 L
410.284 66.959 L
411.37 66.721 L
412.456 66.487 L
413.542 66.258 L
414.628 66.03 L
415.714 65.806 L
416.8 65.583 L
417.886 65.366 L
418.972 65.151 L
420.058 64.939 L
421.144 64.73 L
422.23 64.522 L
423.316 64.318 L
424.402 64.118 L
425.488 63.92 L
426.574 63.725 L
427.66 63.533 L
428.746 63.344 L
429.832 63.155 L
430.918 62.971 L
432.004 62.79 L
433.09 62.61 L
434.176 62.432 L
435.262 62.259 L
436.348 62.087 L
437.434 61.915 L
438.52 61.748 L
439.606 61.584 L
440.692 61.421 L
441.778 61.26 L
442.864 61.102 L
443.95 60.946 L
445.036 60.791 L
446.122 60.641 L
447.208 60.489 L
448.294 60.342 L
449.38 60.195 L
450.466 60.054 L
451.552 59.91 L
452.638 59.771 L
453.724 59.633 L
454.81 59.497 L
455.896 59.362 L
456.982 59.229 L
458.068 59.099 L
459.154 58.972 L
460.24 58.845 L
461.326 58.718 L
462.412 58.597 L
463.498 58.472 L
464.584 58.354 L
465.67 58.235 L
466.756 58.119 L
467.842 58.003 L
468.928 57.89 L
470.014 57.778 L
471.1 57.667 L
472.186 57.557 L
473.272 57.45 L
474.358 57.343 L
475.444 57.238 L
476.53 57.136 L
477.616 57.035 L
478.702 56.933 L
479.788 56.834 L
480.874 56.738 L
481.96 56.639 L
483.046 56.546 L
484.132 56.453 L
485.218 56.36 L
486.304 56.267 L
487.39 56.179 L
488.476 56.089 L
489.562 56.001 L
490.648 55.916 L
491.734 55.829 L
492.82 55.747 L
493.906 55.662 L
494.992 55.58 L
496.078 55.501 L
497.164 55.422 L
498.25 55.343 L
499.336 55.264 L
500.422 55.188 L
501.508 55.114 L
502.594 55.038 L
503.68 54.965 L
504.766 54.894 L
505.852 54.821 L
506.938 54.753 L
508.024 54.682 L
509.11 54.615 L
510.196 54.547 L
511.282 54.479 L
512.368 54.414 L
513.454 54.349 L
514.54 54.284 L
515.626 54.222 L
516.712 54.16 L
517.798 54.098 L
518.884 54.036 L
519.97 53.976 L
521.056 53.917 L
522.142 53.86 L
523.228 53.801 L
524.314 53.745 L
525.4 53.688 L
526.486 53.635 L
527.572 53.578 L
528.658 53.524 L
529.744 53.474 L
530.83 53.42 L
531.916 53.369 L
533.002 53.318 L
534.088 53.267 L
535.174 53.217 L
536.26 53.169 L
537.346 53.121 L
538.432 53.073 L
539.518 53.025 L
540.604 52.979 L
541.69 52.931 L
542.776 52.886 L
543.862 52.844 L
544.948 52.799 L
546.034 52.756 L
547.12 52.711 L
548.206 52.669 L
549.292 52.629 L
550.378 52.587 L
551.464 52.547 L
552.55 52.505 L
553.636 52.465 L
554.722 52.426 L
555.808 52.389 L
556.894 52.35 L
557.98 52.313 L
559.066 52.276 L
560.152 52.239 L
561.238 52.203 L
562.324 52.166 L
563.41 52.132 L
564.496 52.095 L
565.582 52.062 L
566.668 52.028 L
567.754 51.994 L
568.84 51.96 L
569.926 51.929 L
571.012 51.895 L
572.098 51.864 L
573.184 51.833 L
574.27 51.802 L
575.356 51.771 L
576.442 51.74 L
577.528 51.711 L
578.614 51.68 L
579.7 51.652 L
580.786 51.624 L
581.872 51.596 L
582.958 51.567 L
584.044 51.539 L
585.13 51.511 L
586.216 51.485 L
587.302 51.457 L
588.388 51.432 L
589.474 51.406 L
590.56 51.378 L
591.646 51.353 L
592.732 51.33 L
593.818 51.305 L
594.904 51.279 L
595.99 51.257 L
597.076 51.231 L
598.162 51.209 L
599.248 51.186 L
600.334 51.161 L
601.42 51.138 L
602.506 51.118 L
603.592 51.096 L
604.678 51.073 L
605.764 51.05 L
606.85 51.031 L
607.936 51.008 L
609.022 50.988 L
610.108 50.969 L
611.194 50.946 L
612.28 50.926 L
613.366 50.906 L
614.452 50.887 L
615.538 50.867 L
616.624 50.85 L
617.71 50.83 L
618.796 50.81 L
619.882 50.793 L
620.968 50.774 L
622.054 50.757 L
623.14 50.74 L
624.226 50.72 L
625.312 50.703 L
626.398 50.686 L
627.484 50.669 L
628.57 50.652 L
629.656 50.635 L
630.742 50.621 L
631.828 50.604 L
632.914 50.587 L
634 50.573 L
634.065 50.572 L
S
GR
GS
[0.6 0 0 0.6 0 0] CT
1 GC
N
627 445 M
627 358 L
336 358 L
336 445 L
cp
f
GR
GS
[0.6 0 0 0.6 236.8803 222.31078] CT
/Helvetica 15 F
GS
[1 0 0 1 0 0] CT
0 6 moveto 
1 -1 scale
(Proposed method mean likelihood) t 
GR
GR
GS
[0.6 0 0 0.6 0 0] CT
0.941 0.008 0.498 RC
[3 3] 0 setdash
2 LJ
3.333 LW
N
341.004 370.518 M
391.047 370.518 L
S
GR
GS
[0.6 0 0 0.6 236.8803 234.7036] CT
/Helvetica 15 F
GS
[1 0 0 1 0 0] CT
0 6 moveto 
1 -1 scale
(Proposed method variation) t 
GR
GR
GS
[0.6 0 0 0.6 0 0] CT
0.988 0.802 0.9 RC
N
391.047 399.184 M
391.047 383.161 L
341.004 383.161 L
341.004 399.184 L
cp
f
GR
GS
[0.6 0 0 0.6 236.8803 247.0964] CT
/Helvetica 15 F
GS
[1 0 0 1 0 0] CT
0 6 moveto 
1 -1 scale
(RB-PSAEM mean likelihood) t 
GR
GR
GS
[0.6 0 0 0.6 0 0] CT
0.992 0.753 0.525 RC
1 LJ
3.333 LW
N
341.004 411.827 M
391.047 411.827 L
S
GR
GS
[0.6 0 0 0.6 236.8803 259.48922] CT
/Helvetica 15 F
GS
[1 0 0 1 0 0] CT
0 6 moveto 
1 -1 scale
(RB-PSAEM variation) t 
GR
GR
GS
[0.6 0 0 0.6 0 0] CT
0.998 0.951 0.905 RC
N
391.047 440.494 M
391.047 424.47 L
341.004 424.47 L
341.004 440.494 L
cp
f
GR
GS
[0.6 0 0 0.6 0 0] CT
0.149 GC
10.0 ML
0.833 LW
N
336 445 M
336 358 L
627 358 L
627 445 L
cp
S
GR
%%Trailer
%%Pages: 1
%%EOF
